
automate_fortress_machine_planet = {
	available = {
		has_designation = col_fortress
		owner = { has_authority = auth_machine_intelligence	}
		free_jobs < 3
	}

	prio_districts = {
		district_nexus
	}

	buildings = {
		1 = {
			building = building_deployment_post
			available = {
				always = yes
			}
		}

		2 = {
			building = building_machine_assembly_plant
			available = {
				owner = {
					machine_assembly_plant_upkeep_affordable = yes
				}
			}
		}

		3 = {
			building = building_maintenance_depot
			available = {
				owner = {
					maintenance_depot_upkeep_affordable = yes
				}
			}
		}

		4 = {
			building = building_stronghold
			available = {
				owner = {
					stronghold_upkeep_affordable = yes
				}
			}
		}

		5 = {
			building = building_uplink_node
			available = {
				owner = {
					uplink_node_upkeep_affordable = yes
				}
			}
		}

		6 = {
			building = building_stronghold
			available = {
				owner = {
					stronghold_upkeep_affordable = yes
				}
			}
		}

		7 = {
			building = building_chemical_plant
			available = {
				owner = {
					chemical_plant_upkeep_affordable = yes
				}
			}
		}

		8 = {
			building = building_stronghold
			available = {
				owner = {
					stronghold_upkeep_affordable = yes
				}
			}
		}

		9 = {
			building = building_maintenance_depot
			available = {
				owner = {
					maintenance_depot_upkeep_affordable = yes
				}
			}
		}

		10 = {
			building = building_stronghold
			available = {
				owner = {
					stronghold_upkeep_affordable = yes
				}
			}
		}

		11 = {
			building = building_chemical_plant
			available = {
				owner = {
					chemical_plant_upkeep_affordable = yes
				}
			}
		}

		12 = {
			building = building_stronghold
			available = {
				owner = {
					stronghold_upkeep_affordable = yes
				}
			}
		}

		13 = {
			building = building_resource_silo
			available = {
				owner = {
					resource_silo_upkeep_affordable = yes
				}
			}
		}

		14 = {
			building = building_stronghold
			available = {
				owner = {
					stronghold_upkeep_affordable = yes
				}
			}
		}

		15 = {
			building = building_maintenance_depot
			available = {
				owner = {
					maintenance_depot_upkeep_affordable = yes
				}
			}
		}

		16 = {
			building = building_planetary_shield_generator
			available = {
				owner = {
					planetary_shield_generator_upkeep_affordable = yes
				}
			}
		}
	}
}