purge = {
	rank = 0
	clothes_texture_index = 2

	assign_to_pop = {
		OR = {
			is_being_purged = yes
			has_pop_flag = event_purge
			AND = { # controlled by crisis
				exists = planet
				planet = {
					exists = controller
					controller = {
						OR = {
							is_country_type = ai_empire
							is_country_type = swarm
						}
					}
				}
				OR = { # contingency won't purge itself
					NOT = { exists = event_target:custodian_bot }
					AND = {
						exists = event_target:custodian_bot
						NOT = { species = { is_same_value = event_target:custodian_bot } }
					}
				}
			}
		}
	}

	weight = {
		weight = 20
	}

	# scope: pop to be resettled
	allow_resettlement = {
		always = yes
	}

	resettlement_cost = {
		energy = 100
	}

	pop_modifier = {
		pop_political_power = -1
	}
	resources = {
		category = pop_category_purge
	}
}

robot_servant = {
	rank = 0
	display_category = worker

	pop_modifier = {
		pop_political_power = -1
		pop_housing_usage_base = 0.5
		pop_amenities_usage_base = 0.5
	}

	assign_to_pop = {
		NAND = {
			exists = planet
			planet = {
				exists = owner
				owner = { is_gestalt = yes }
			}
		}
		OR = {
			is_shackled_robot = yes
			is_non_sapient_robot = yes
		}
	}
	weight = {
		weight = 15
	}

	# scope: pop to be resettled
	allow_resettlement = {
		always = yes
	}

	resettlement_cost = {
		energy = 100
	}

	resources = {
		category = pop_category_robot
		upkeep = {
			energy = @living_standard_energy_normal
		}
	}
}

slave = {
	rank = 0
	clothes_texture_index = 2
	display_category = worker

	assign_to_pop = {
		is_enslaved = yes
	}
	weight = {
		weight = 10
	}

	pop_modifier = {
		pop_political_power = -0.75
		pop_housing_usage_base = 0.75
		pop_amenities_usage_base = 0.75
	}

	# scope: pop to be resettled
	allow_resettlement = {
		always = yes
	}

	resettlement_cost = {
		energy = 50
	}

	resources = {
		category = pop_category_slave

		# Organic Upkeep
		upkeep = {
			trigger = {
				is_organic_species = yes
				is_lithoid = no
				has_very_high_living_standard_type = yes
			}
			food = @living_standard_food_normal
			consumer_goods = @living_standard_luxuries_low
		}
		upkeep = {
			trigger = {
				is_organic_species = yes
				is_lithoid = no
				has_high_living_standard_type = yes
			}
			food = @living_standard_food_normal
			consumer_goods = @living_standard_luxuries_low
		}
		upkeep = {
			trigger = {
				is_organic_species = yes
				is_lithoid = no
				OR = {
					has_normal_living_standard_type = yes
					has_academic_living_standard_type = yes
				}
			}
			food = @living_standard_food_normal
			consumer_goods = @living_standard_luxuries_very_low
		}
		upkeep = {
			trigger = {
				is_organic_species = yes
				is_lithoid = no
				OR = {
					has_low_living_standard_type = yes
					has_stratified_living_standard_type = yes
				}
			}
			food = @living_standard_food_normal
		}

		# Lithoid Upkeep
		upkeep = {
			trigger = {
				is_organic_species = yes
				is_lithoid = yes
				has_very_high_living_standard_type = yes
			}
			minerals = @living_standard_food_normal
			consumer_goods = @living_standard_luxuries_low
		}
		upkeep = {
			trigger = {
				is_organic_species = yes
				is_lithoid = yes
				has_high_living_standard_type = yes
			}
			minerals = @living_standard_food_normal
			consumer_goods = @living_standard_luxuries_low
		}
		upkeep = {
			trigger = {
				is_organic_species = yes
				is_lithoid = yes
				OR = {
					has_normal_living_standard_type = yes
					has_academic_living_standard_type = yes
				}
			}
			minerals = @living_standard_food_normal
			consumer_goods = @living_standard_luxuries_very_low
		}
		upkeep = {
			trigger = {
				is_organic_species = yes
				is_lithoid = yes
				OR = {
					has_low_living_standard_type = yes
					has_stratified_living_standard_type = yes
				}
			}
			minerals = @living_standard_food_normal
		}

		# Robotic Upkeep
		upkeep = {
			trigger = {
				is_robotic_species = yes
				has_very_high_living_standard_type = yes
			}
			energy = @living_standard_energy_normal
			consumer_goods = @living_standard_luxuries_low
		}
		upkeep = {
			trigger = {
				is_robotic_species = yes
				has_high_living_standard_type = yes
			}
			energy = @living_standard_energy_normal
			consumer_goods = @living_standard_luxuries_low
		}
		upkeep = {
			trigger = {
				is_robotic_species = yes
				OR = {
					has_normal_living_standard_type = yes
					has_academic_living_standard_type = yes
				}
			}
			energy = @living_standard_energy_normal
			consumer_goods = @living_standard_luxuries_very_low
		}
		upkeep = {
			trigger = {
				is_robotic_species = yes
				has_stratified_living_standard_type = yes
			}
			energy = @living_standard_energy_normal
		}

		produces = {
			trigger = {
				is_lithoid = yes
				has_trait = trait_lithoid_scintillating
			}
			rare_crystals = @lithoid_trait_resource_production
		}

		produces = {
			trigger = {
				is_lithoid = yes
				has_trait = trait_lithoid_gaseous_byproducts
			}
			exotic_gases = @lithoid_trait_resource_production
		}

		produces = {
			trigger = {
				is_lithoid = yes
				has_trait = trait_lithoid_volatile_excretions
			}
			volatile_motes = @lithoid_trait_resource_production
		}
	}
}

bio_trophy = {
	rank = 0
	clothes_texture_index = 1

	assign_to_pop = {
		has_citizenship_type = { type = citizenship_organic_trophy }
	}
	weight = {
		weight = 5
	}

	# scope: pop to be resettled
	allow_resettlement = {
		always = yes
	}

	resettlement_cost = {
		energy = 50
	}

	pop_modifier = {
		pop_political_power = 10
		pop_housing_usage_base = 1
		pop_amenities_usage_no_happiness_base = 1
	}
	resources = {
		category = pop_category_bio_trophy
		upkeep = {
			trigger = { is_lithoid = no }
			food = @living_standard_food_normal
			consumer_goods = @living_standard_luxuries_very_high
		}

		upkeep = {
			trigger = { is_lithoid = yes }
			minerals = @living_standard_food_normal
			consumer_goods = @living_standard_luxuries_very_high
		}

		produces = {
			trigger = {
				is_lithoid = yes
				has_trait = trait_lithoid_scintillating
			}
			rare_crystals = @lithoid_trait_resource_production
		}

		produces = {
			trigger = {
				is_lithoid = yes
				has_trait = trait_lithoid_gaseous_byproducts
			}
			exotic_gases = @lithoid_trait_resource_production
		}

		produces = {
			trigger = {
				is_lithoid = yes
				has_trait = trait_lithoid_volatile_excretions
			}
			volatile_motes = @lithoid_trait_resource_production
		}
	}

	unemployment_penalties = {
			pop_happiness = -0.80
	}
}

criminal = {
	rank = 1
	clothes_texture_index = 2

	demotion_time = 0
	display_unemployment = no

	triggered_planet_modifier = {
		potential = {
			can_generate_trade_value = yes
			has_shared_burden_living_standard_type = yes
		}
		trade_value_add = @trade_value_shared_burden
	}
	triggered_planet_modifier = {
		potential = {
			can_generate_trade_value = yes
			has_very_high_living_standard_type = yes
		}
		trade_value_add = @trade_value_very_high
	}
	triggered_planet_modifier = {
		potential = {
			can_generate_trade_value = yes
			has_high_living_standard_type = yes
		}
		trade_value_add = @trade_value_high
	}
	triggered_planet_modifier = {
		potential = {
			can_generate_trade_value = yes
			OR = {
				has_normal_living_standard_type = yes
				has_academic_living_standard_type = yes
			}
		}
		trade_value_add = @trade_value_normal
	}
	triggered_planet_modifier = {
		potential = {
			can_generate_trade_value = yes
			has_stratified_living_standard_type = yes
		}
		trade_value_add = @trade_value_low
	}
	triggered_planet_modifier = {
		potential = {
			can_generate_trade_value = yes
			has_low_living_standard_type = yes
		}
		trade_value_add = @trade_value_very_low
	}

	should_apply_unemployment_penalties = {
		NOR = {
			has_very_high_living_standard_type = yes
			has_high_living_standard_type = yes
		}
	}

	pop_modifier = {
		pop_housing_usage_base = 1
		pop_amenities_usage_base = 1
	}

	# scope: pop to be resettled
	allow_resettlement = {
		always = no
	}

	resources = {
		category = pop_category_workers

		# Utopian living standards
		produces = {
			trigger = {
				has_living_standard = { type = living_standard_utopian }
			}
			unity = 1
		}

		# Organic Upkeep
		upkeep = {
			trigger = {
				is_organic_species = yes
				is_lithoid = no
				has_shared_burden_living_standard_type = yes
			}
			food = @living_standard_food_normal
			consumer_goods = @living_standard_luxuries_shared_burden
		}
		upkeep = {
			trigger = {
				is_organic_species = yes
				is_lithoid = no
				has_very_high_living_standard_type = yes
			}
			food = @living_standard_food_normal
			consumer_goods = @living_standard_luxuries_very_high
		}
		upkeep = {
			trigger = {
				is_organic_species = yes
				is_lithoid = no
				has_high_living_standard_type = yes
			}
			food = @living_standard_food_normal
			consumer_goods = @living_standard_luxuries_high
		}
		upkeep = {
			trigger = {
				is_organic_species = yes
				is_lithoid = no
				OR = {
					has_normal_living_standard_type = yes
					has_academic_living_standard_type = yes
				}
			}
			food = @living_standard_food_normal
			consumer_goods = @living_standard_luxuries_normal
		}
		upkeep = {
			trigger = {
				is_organic_species = yes
				is_lithoid = no
				has_stratified_living_standard_type = yes
			}
			food = @living_standard_food_normal
			consumer_goods = @living_standard_luxuries_low
		}
		upkeep = {
			trigger = {
				is_organic_species = yes
				is_lithoid = no
				has_low_living_standard_type = yes
			}
			food = @living_standard_food_normal
			consumer_goods = @living_standard_luxuries_very_low
		}

		# Lithoid Upkeep
		upkeep = {
			trigger = {
				is_organic_species = yes
				is_lithoid = yes
				has_shared_burden_living_standard_type = yes
			}
			minerals = @living_standard_food_normal
			consumer_goods = @living_standard_luxuries_shared_burden
		}
		upkeep = {
			trigger = {
				is_organic_species = yes
				is_lithoid = yes
				has_very_high_living_standard_type = yes
			}
			minerals = @living_standard_food_normal
			consumer_goods = @living_standard_luxuries_very_high
		}
		upkeep = {
			trigger = {
				is_organic_species = yes
				is_lithoid = yes
				has_high_living_standard_type = yes
			}
			minerals = @living_standard_food_normal
			consumer_goods = @living_standard_luxuries_high
		}
		upkeep = {
			trigger = {
				is_organic_species = yes
				is_lithoid = yes
				OR = {
					has_normal_living_standard_type = yes
					has_academic_living_standard_type = yes
				}
			}
			minerals = @living_standard_food_normal
			consumer_goods = @living_standard_luxuries_normal
		}
		upkeep = {
			trigger = {
				is_organic_species = yes
				is_lithoid = yes
				has_stratified_living_standard_type = yes
			}
			minerals = @living_standard_food_normal
			consumer_goods = @living_standard_luxuries_low
		}
		upkeep = {
			trigger = {
				is_organic_species = yes
				is_lithoid = yes
				has_low_living_standard_type = yes
			}
			minerals = @living_standard_food_normal
			consumer_goods = @living_standard_luxuries_very_low
		}

		# Robotic Upkeep
		upkeep = {
			trigger = {
				is_robotic_species = yes
				has_shared_burden_living_standard_type = yes
			}
			energy = @living_standard_energy_normal
			consumer_goods = @living_standard_luxuries_shared_burden
		}
		upkeep = {
			trigger = {
				is_robotic_species = yes
				has_very_high_living_standard_type = yes
			}
			energy = @living_standard_energy_normal
			consumer_goods = @living_standard_luxuries_very_high
		}
		upkeep = {
			trigger = {
				is_robotic_species = yes
				has_high_living_standard_type = yes
			}
			energy = @living_standard_energy_normal
			consumer_goods = @living_standard_luxuries_high
		}
		upkeep = {
			trigger = {
				is_robotic_species = yes
				has_normal_living_standard_type = yes
			}
			energy = @living_standard_energy_normal
			consumer_goods = @living_standard_luxuries_normal
		}
		upkeep = {
			trigger = {
				is_robotic_species = yes
				has_stratified_living_standard_type = yes
			}
			energy = @living_standard_energy_normal
			consumer_goods = @living_standard_luxuries_low
		}
		upkeep = {
			trigger = {
				is_robotic_species = yes
				has_low_living_standard_type = yes
			}
			energy = @living_standard_energy_normal
			consumer_goods = @living_standard_luxuries_very_low
		}
	}
}

assimilation = {
	rank = 0
	assign_to_pop = {
		is_being_assimilated = yes
	}

	weight = {
		weight = 15
	}

	# scope: pop to be resettled
	allow_resettlement = {
		always = yes
	}

	resettlement_cost = {
		energy = 100
	}

	pop_modifier = {
		pop_political_power = -1
	}

	resources = {
		category = pop_category_assimilation
	}
}

deviant_drone = {
	rank = 2
	clothes_texture_index = 2

	demotion_time = 0

	triggered_planet_modifier = {
		potential = {
			can_generate_trade_value = yes
			has_shared_burden_living_standard_type = yes
		}
		trade_value_add = @trade_value_shared_burden
	}
	triggered_planet_modifier = {
		potential = {
			can_generate_trade_value = yes
			has_very_high_living_standard_type = yes
		}
		trade_value_add = @trade_value_very_high
	}
	triggered_planet_modifier = {
		potential = {
			can_generate_trade_value = yes
			has_high_living_standard_type = yes
		}
		trade_value_add = @trade_value_high
	}
	triggered_planet_modifier = {
		potential = {
			can_generate_trade_value = yes
			OR = {
				has_normal_living_standard_type = yes
				has_academic_living_standard_type = yes
			}
		}
		trade_value_add = @trade_value_normal
	}
	triggered_planet_modifier = {
		potential = {
			can_generate_trade_value = yes
			has_stratified_living_standard_type = yes
		}
		trade_value_add = @trade_value_low
	}
	triggered_planet_modifier = {
		potential = {
			can_generate_trade_value = yes
			has_low_living_standard_type = yes
		}
		trade_value_add = @trade_value_very_low
	}

	should_apply_unemployment_penalties = {
		NOR = {
			has_very_high_living_standard_type = yes
			has_high_living_standard_type = yes
		}
	}

	pop_modifier = {
		pop_housing_usage_base = 1
		pop_amenities_usage_base = 1
	}

	# scope: pop to be resettled
	allow_resettlement = {
		always = no
	}

	resources = {
		category = pop_category_workers

		# Utopian living standards
		produces = {
			trigger = {
				has_living_standard = { type = living_standard_utopian }
			}
			unity = 1
		}

		# Organic Upkeep
		upkeep = {
			trigger = {
				is_organic_species = yes
				is_lithoid = no
				has_shared_burden_living_standard_type = yes
			}
			food = @living_standard_food_normal
			consumer_goods = @living_standard_luxuries_shared_burden
		}
		upkeep = {
			trigger = {
				is_organic_species = yes
				is_lithoid = no
				has_very_high_living_standard_type = yes
			}
			food = @living_standard_food_normal
			consumer_goods = @living_standard_luxuries_very_high
		}
		upkeep = {
			trigger = {
				is_organic_species = yes
				is_lithoid = no
				has_high_living_standard_type = yes
			}
			food = @living_standard_food_normal
			consumer_goods = @living_standard_luxuries_high
		}
		upkeep = {
			trigger = {
				is_organic_species = yes
				is_lithoid = no
				OR = {
					has_normal_living_standard_type = yes
					has_academic_living_standard_type = yes
				}
			}
			food = @living_standard_food_normal
			consumer_goods = @living_standard_luxuries_normal
		}
		upkeep = {
			trigger = {
				is_organic_species = yes
				is_lithoid = no
				has_stratified_living_standard_type = yes
			}
			food = @living_standard_food_normal
			consumer_goods = @living_standard_luxuries_low
		}
		upkeep = {
			trigger = {
				is_organic_species = yes
				is_lithoid = no
				has_low_living_standard_type = yes
			}
			food = @living_standard_food_normal
			consumer_goods = @living_standard_luxuries_very_low
		}

		# Lithoid Upkeep
		upkeep = {
			trigger = {
				is_organic_species = yes
				is_lithoid = yes
				has_shared_burden_living_standard_type = yes
			}
			minerals = @living_standard_food_normal
			consumer_goods = @living_standard_luxuries_shared_burden
		}
		upkeep = {
			trigger = {
				is_organic_species = yes
				is_lithoid = yes
				has_very_high_living_standard_type = yes
			}
			minerals = @living_standard_food_normal
			consumer_goods = @living_standard_luxuries_very_high
		}
		upkeep = {
			trigger = {
				is_organic_species = yes
				is_lithoid = yes
				has_high_living_standard_type = yes
			}
			minerals = @living_standard_food_normal
			consumer_goods = @living_standard_luxuries_high
		}
		upkeep = {
			trigger = {
				is_organic_species = yes
				is_lithoid = yes
				OR = {
					has_normal_living_standard_type = yes
					has_academic_living_standard_type = yes
				}
			}
			minerals = @living_standard_food_normal
			consumer_goods = @living_standard_luxuries_normal
		}
		upkeep = {
			trigger = {
				is_organic_species = yes
				is_lithoid = yes
				has_stratified_living_standard_type = yes
			}
			minerals = @living_standard_food_normal
			consumer_goods = @living_standard_luxuries_low
		}
		upkeep = {
			trigger = {
				is_organic_species = yes
				is_lithoid = yes
				has_low_living_standard_type = yes
			}
			minerals = @living_standard_food_normal
			consumer_goods = @living_standard_luxuries_very_low
		}

		# Robotic Upkeep
		upkeep = {
			trigger = {
				is_robotic_species = yes
				has_shared_burden_living_standard_type = yes
			}
			energy = @living_standard_energy_normal
			consumer_goods = @living_standard_luxuries_shared_burden
		}
		upkeep = {
			trigger = {
				is_robotic_species = yes
				has_very_high_living_standard_type = yes
			}
			energy = @living_standard_energy_normal
			consumer_goods = @living_standard_luxuries_very_high
		}
		upkeep = {
			trigger = {
				is_robotic_species = yes
				has_high_living_standard_type = yes
			}
			energy = @living_standard_energy_normal
			consumer_goods = @living_standard_luxuries_high
		}
		upkeep = {
			trigger = {
				is_robotic_species = yes
				has_normal_living_standard_type = yes
			}
			energy = @living_standard_energy_normal
			consumer_goods = @living_standard_luxuries_normal
		}
		upkeep = {
			trigger = {
				is_robotic_species = yes
				has_stratified_living_standard_type = yes
			}
			energy = @living_standard_energy_normal
			consumer_goods = @living_standard_luxuries_low
		}
		upkeep = {
			trigger = {
				is_robotic_species = yes
				has_low_living_standard_type = yes
			}
			energy = @living_standard_energy_normal
			consumer_goods = @living_standard_luxuries_very_low
		}
	}
}

corrupt_drone = {
	rank = 2
	clothes_texture_index = 2

	demotion_time = 0

	triggered_planet_modifier = {
		potential = {
			can_generate_trade_value = yes
			has_shared_burden_living_standard_type = yes
		}
		trade_value_add = @trade_value_shared_burden
	}
	triggered_planet_modifier = {
		potential = {
			can_generate_trade_value = yes
			has_very_high_living_standard_type = yes
		}
		trade_value_add = @trade_value_very_high
	}
	triggered_planet_modifier = {
		potential = {
			can_generate_trade_value = yes
			has_high_living_standard_type = yes
		}
		trade_value_add = @trade_value_high
	}
	triggered_planet_modifier = {
		potential = {
			can_generate_trade_value = yes
			OR = {
				has_normal_living_standard_type = yes
				has_academic_living_standard_type = yes
			}
		}
		trade_value_add = @trade_value_normal
	}
	triggered_planet_modifier = {
		potential = {
			can_generate_trade_value = yes
			has_stratified_living_standard_type = yes
		}
		trade_value_add = @trade_value_low
	}
	triggered_planet_modifier = {
		potential = {
			can_generate_trade_value = yes
			has_low_living_standard_type = yes
		}
		trade_value_add = @trade_value_very_low
	}

	should_apply_unemployment_penalties = {
		NOR = {
			has_very_high_living_standard_type = yes
			has_high_living_standard_type = yes
		}
	}

	pop_modifier = {
		pop_housing_usage_base = 1
		pop_amenities_usage_base = 1
	}

	# scope: pop to be resettled
	allow_resettlement = {
		always = no
	}

	resources = {
		category = pop_category_workers

		# Utopian living standards
		produces = {
			trigger = {
				has_living_standard = { type = living_standard_utopian }
			}
			unity = 1
		}

		# Organic Upkeep
		upkeep = {
			trigger = {
				is_organic_species = yes
				is_lithoid = no
				has_shared_burden_living_standard_type = yes
			}
			food = @living_standard_food_normal
			consumer_goods = @living_standard_luxuries_shared_burden
		}
		upkeep = {
			trigger = {
				is_organic_species = yes
				is_lithoid = no
				has_very_high_living_standard_type = yes
			}
			food = @living_standard_food_normal
			consumer_goods = @living_standard_luxuries_very_high
		}
		upkeep = {
			trigger = {
				is_organic_species = yes
				is_lithoid = no
				has_high_living_standard_type = yes
			}
			food = @living_standard_food_normal
			consumer_goods = @living_standard_luxuries_high
		}
		upkeep = {
			trigger = {
				is_organic_species = yes
				is_lithoid = no
				OR = {
					has_normal_living_standard_type = yes
					has_academic_living_standard_type = yes
				}
			}
			food = @living_standard_food_normal
			consumer_goods = @living_standard_luxuries_normal
		}
		upkeep = {
			trigger = {
				is_organic_species = yes
				is_lithoid = no
				has_stratified_living_standard_type = yes
			}
			food = @living_standard_food_normal
			consumer_goods = @living_standard_luxuries_low
		}
		upkeep = {
			trigger = {
				is_organic_species = yes
				is_lithoid = no
				has_low_living_standard_type = yes
			}
			food = @living_standard_food_normal
			consumer_goods = @living_standard_luxuries_very_low
		}

		# Lithoid Upkeep
		upkeep = {
			trigger = {
				is_organic_species = yes
				is_lithoid = yes
				has_shared_burden_living_standard_type = yes
			}
			minerals = @living_standard_food_normal
			consumer_goods = @living_standard_luxuries_shared_burden
		}
		upkeep = {
			trigger = {
				is_organic_species = yes
				is_lithoid = yes
				has_very_high_living_standard_type = yes
			}
			minerals = @living_standard_food_normal
			consumer_goods = @living_standard_luxuries_very_high
		}
		upkeep = {
			trigger = {
				is_organic_species = yes
				is_lithoid = yes
				has_high_living_standard_type = yes
			}
			minerals = @living_standard_food_normal
			consumer_goods = @living_standard_luxuries_high
		}
		upkeep = {
			trigger = {
				is_organic_species = yes
				is_lithoid = yes
				OR = {
					has_normal_living_standard_type = yes
					has_academic_living_standard_type = yes
				}
			}
			minerals = @living_standard_food_normal
			consumer_goods = @living_standard_luxuries_normal
		}
		upkeep = {
			trigger = {
				is_organic_species = yes
				is_lithoid = yes
				has_stratified_living_standard_type = yes
			}
			minerals = @living_standard_food_normal
			consumer_goods = @living_standard_luxuries_low
		}
		upkeep = {
			trigger = {
				is_organic_species = yes
				is_lithoid = yes
				has_low_living_standard_type = yes
			}
			minerals = @living_standard_food_normal
			consumer_goods = @living_standard_luxuries_very_low
		}

		# Robotic Upkeep
		upkeep = {
			trigger = {
				is_robotic_species = yes
				has_shared_burden_living_standard_type = yes
			}
			energy = @living_standard_energy_normal
			consumer_goods = @living_standard_luxuries_shared_burden
		}
		upkeep = {
			trigger = {
				is_robotic_species = yes
				has_very_high_living_standard_type = yes
			}
			energy = @living_standard_energy_normal
			consumer_goods = @living_standard_luxuries_very_high
		}
		upkeep = {
			trigger = {
				is_robotic_species = yes
				has_high_living_standard_type = yes
			}
			energy = @living_standard_energy_normal
			consumer_goods = @living_standard_luxuries_high
		}
		upkeep = {
			trigger = {
				is_robotic_species = yes
				has_normal_living_standard_type = yes
			}
			energy = @living_standard_energy_normal
			consumer_goods = @living_standard_luxuries_normal
		}
		upkeep = {
			trigger = {
				is_robotic_species = yes
				has_stratified_living_standard_type = yes
			}
			energy = @living_standard_energy_normal
			consumer_goods = @living_standard_luxuries_low
		}
		upkeep = {
			trigger = {
				is_robotic_species = yes
				has_low_living_standard_type = yes
			}
			energy = @living_standard_energy_normal
			consumer_goods = @living_standard_luxuries_very_low
		}
	}
}

precursor = {
	rank = 3
	clothes_texture_index = 1

	assign_to_pop = {
		exists = owner
		is_same_species = owner
		owner = {
			OR = {
				is_country_type = fallen_empire
				is_country_type = awakened_fallen_empire
			}
		}
	}
	weight = {
		weight = 100

		# crisis purge
		modifier = {
			factor = 0.01
			planet.controller = {
				OR = {
					is_country_type = swarm
					is_country_type = ai_empire
				}
			}
		}
	}

	pop_modifier = {
		pop_political_power = 9
		pop_housing_usage_base = 2
		pop_amenities_usage_base = 2
	}

	# scope: pop to be resettled
	allow_resettlement = {
		always = yes
	}

	resettlement_cost = {
		energy = 100
	}

	resources = {
		category = pop_category_precursor

		# Organic Upkeep
		upkeep = {
			trigger = {
				is_organic_species = yes
				is_lithoid = no
				exists = owner
				owner = {
					is_spiritualist = no
				}
			}
			food = 2.0
			consumer_goods = 2.0
		}

		upkeep = {
			trigger = {
				is_organic_species = yes
				is_lithoid = no
				exists = owner
				owner = {
					is_spiritualist = yes
				}
			}
			food = 1.0
			consumer_goods = 1.0
		}

		# Lithoid Upkeep
		upkeep = {
			trigger = {
				is_organic_species = yes
				is_lithoid = yes
				exists = owner
				owner = {
					is_spiritualist = no
				}
			}
			minerals = 2.0
			consumer_goods = 2.0
		}

		upkeep = {
			trigger = {
				is_organic_species = yes
				is_lithoid = yes
				exists = owner
				owner = {
					is_spiritualist = yes
				}
			}
			minerals = 1.0
			consumer_goods = 1.0
		}

		# Robotic Upkeep
		upkeep = {
			trigger = {
				is_robotic_species = yes
			}
			energy = @living_standard_energy_normal
		}
	}
}

xeno_ward = {
	rank = 0
	clothes_texture_index = 3

	pop_modifier = {
		pop_political_power = -1
		pop_housing_usage_base = 1
		pop_amenities_usage_base = 1
	}

	# scope: pop to be resettled
	allow_resettlement = {
		always = no
	}

	resources = {
		category = pop_category_xeno_ward

		# Organic Upkeep
		upkeep = {
			trigger = {
				is_organic_species = yes
				is_lithoid = no
			}
			food = @living_standard_food_normal
			consumer_goods = @living_standard_luxuries_very_high
		}

		# Lithoid Upkeep
		upkeep = {
			trigger = {
				is_organic_species = yes
				is_lithoid = yes
			}
			minerals = @living_standard_food_normal
			consumer_goods = @living_standard_luxuries_very_high
		}

		# Robotic Upkeep
		upkeep = {
			trigger = {
				is_robotic_species = yes
			}
			energy = @living_standard_energy_normal
		}
	}
}

pre_sapients = {
	rank = 0
	clothes_texture_index = 3

	assign_to_pop = {
		NOT = { exists = owner }
	}
	weight = {
		weight = 1
	}

	pop_modifier = {
		pop_political_power = -1
		pop_housing_usage_base = -1
		pop_amenities_usage_no_happiness_base = -1
		pop_happiness = 1
	}

	# scope: pop to be resettled
	allow_resettlement = {
		always = no
	}

	resources = {
		category = pop_category_pre_sapients

		# Organic Upkeep
		upkeep = {
		}

	}
}