﻿# Generated species derive their names from here

### MAMMALIANS

MAM = {
	tumbator = {
		language = "l_simp_chinese"
		name = 图巴托尔
		plural = 图巴托尔
		home_planet = "第一任"
		home_system = 收到
		name_list = "MAM1"
	}

	onotach = {
		language = "l_simp_chinese"
		name = 欧诺塔奇
		plural = 欧诺塔奇
		home_planet = 欧诺塔
		home_system = 欧诺塔奇
		name_list = "MAM2"
	}

	yapathi = {
		language = "l_simp_chinese"
		name = 亚帕西
		plural = 亚帕西
		home_planet = 亚帕西
		home_system = 亚帕西尼尔
		name_list = "MAM3"
	}
		
	rekthalar = {
		language = "l_simp_chinese"
		name = 雷克萨拉
		plural = 雷克萨拉
		home_planet = 雷克欧马克
		home_system = 雷克萨
		name_list = "MAM2"
	}

	zum = {
		language = "l_simp_chinese"
		name = 祖姆
		plural = 祖米
		home_planet = 希弗努斯
		home_system = 希弗
		name_list = "MAM3"
	}
	
	ugarlak = {
		language = "l_simp_chinese"
		name = 乌格拉克
		plural = 乌格拉奇
		home_planet = "乌格拉克 诺格"
		home_system = 乌格拉克尔
		name_list = "MAM2"
	}

	glostwerheni = {
		language = "l_simp_chinese"
		name = 格罗斯特-威何尼
		plural = 格罗斯特-威何尼
		home_planet = 威何尼
		home_system = "威何尼 穗"
		name_list = "MAM3"
	}

	mekonass = {
		language = "l_simp_chinese"
		name = 梅科·纳斯
		plural = 梅科·纳西
		home_planet = 戈德兰
		home_system = "戈德兰"
		name_list = "MAM1"
	}

	oklarr = {
		language = "l_simp_chinese"
		name = 俄克拉
		plural = 俄克拉里
		home_planet = "俄克拉主星"
		home_system = 萨克特罗克拉
		name_list = "MAM2"
	}

	drullperfen = {
		language = "l_simp_chinese"
		name = 卓尔佩芬
		plural = 卓尔佩芬
		home_planet = 卓尔
		home_system = "卓尔·伊克莱"
		name_list = "MAM3"
	}

	photecian = {
		language = "l_simp_chinese"
		name = 弗台仙
		plural = 弗台仙
		home_planet = 艾斯塔琴
		home_system = 艾斯塔琴乌克
		name_list = "MAM1"
	}

	wessari = {
		language = "l_simp_chinese"
		name = 沃萨里
		plural = 沃萨里
		home_planet = "乌戈尔·马克"
		home_system = "乌戈尔·欧码马克"
		name_list = "MAM3"
	}

	lahtrepian = {
		language = "l_simp_chinese"
		name = 拉特雷普恩
		plural = 拉特雷普恩
		home_planet = 乌米坎卓
		home_system = "乌米坎卓·欧加特"
		name_list = "MAM1"
	}

	ekwynian = {
		language = "l_simp_chinese"
		name = 埃克温
		plural = 埃克温
		home_planet = 斯诺塔利维什
		home_system = "斯诺塔利维什-恰"
		name_list = "MAM2"
	}

	ragerian = {
		language = "l_simp_chinese"
		name = 拉杰锐恩
		plural = 拉杰锐恩
		home_planet = 埃利亚
		home_system = "埃利亚·胡喜拉"
		name_list = "MAM3"
	}

	pouzjok = {
		language = "l_simp_chinese"
		name = 佩兹约克
		plural = 佩兹约克
		home_planet = "佩兹约克主星"
		home_system = 罗坎德
		name_list = "MAM3"
	}

	jusstkan = {
		language = "l_simp_chinese"
		name = 竺斯特卡恩
		plural = 竺斯特卡恩
		home_planet = 竺斯特卡
		home_system = 竺斯
		name_list = "MAM2"
	}
	
	klaggian = {
		language = "l_simp_chinese"
		name = 克拉金
		plural = 克拉金
		home_planet = 雷洛格
		home_system = 拉格拉加
		name_list = "MAM3"
	}
	
	uqopraknar = {
		language = "l_simp_chinese"
		name = 乌科普兰克纳
		plural = 乌科普兰克纳
		home_planet = 魁洛格
		home_system = "罗斯兰·皮福"
		name_list = "MAM1"
	}
	
	onedqarak = {
		language = "l_simp_chinese"
		name = 欧纳德魁拉克
		plural = 欧纳德魁拉克
		home_planet = 伊雷劳姆恩
		home_system = "伊雷劳姆·珠穆特拉"
		name_list = "MAM2"
	}
	
	ruphaari = {
		language = "l_simp_chinese"
		name = 鲁帕利
		plural = 鲁帕利
		home_planet = 鲁帕
		home_system = 鲁帕雅
		name_list = "MAM1"
	}
	
	qwepulci = {
		language = "l_simp_chinese"
		name = 奎普尔希
		plural = 奎普尔希
		home_planet = 乌克拉普
		home_system = 乌克拉普克诺
		name_list = "MAM2"
	}
	
	groknaploran = {
		language = "l_simp_chinese"
		name = 戈洛克拿破兰
		plural = 戈洛克拿破兰
		home_planet = 艾德诺
		home_system = 阿丹尼尔
		name_list = "MAM3"
	}
	
	ktaknor = {
		language = "l_simp_chinese"
		name = 科塔诺尔
		plural = 科塔诺尔
		home_planet = "乌福瑞姆·普夫"
		home_system = 乌福瑞姆
		name_list = "MAM1"
	}
	
	gagassi = {
		language = "l_simp_chinese"
		name = 加卡斯
		plural = 加卡斯
		home_planet = 迈克纳萨
		home_system = 普尔特兰欧格
		name_list = "MAM1"
	}
	
	hadadeshi = {
		language = "l_simp_chinese"
		name = 哈达黛西
		plural = 哈达黛西
		home_planet = 瓦巴巴
		home_system = 巴伐芭芭
		name_list = "MAM1"
	}
}

### FUNGOID

FUN = {
	obevni = {
		language = "l_simp_chinese"
		name = 奥贝尼
		plural = 奥贝尼
		home_planet = "奥贝夫·摩尼"
		home_system = 欧伊根
		name_list = "FUN3"
	}
	
	finu = {
		language = "l_simp_chinese"
		name = 芬纽
		plural = 芬纽
		home_planet = "芬纽维亚"
		home_system = 格拉提尔
		name_list = "FUN3"
	}
	
	obbha = {
		language = "l_simp_chinese"
		name = 奥巴
		plural = 奥巴
		home_planet = 霍奇
		home_system = "霍奇·加戈"
		name_list = "FUN3"
	}
	
	ganlarev = {
		language = "l_simp_chinese"
		name = 甘拉瑞弗
		plural = 甘拉瑞弗
		home_planet = 甘拉瑞弗亚
		home_system = 甘拉瑞戈
		name_list = "FUN3"
	}
	
	buhavilaa = {
		language = "l_simp_chinese"
		name = 布哈维拉
		plural = 布哈维兰
		home_planet = 布哈
		home_system = 贝维尔
		name_list = "FUN3"
	}
	
	oginollox = {
		language = "l_simp_chinese"
		name = 欧吉诺洛克斯
		plural = 欧吉诺洛克斯
		home_planet = "赛尔 赛尔"
		home_system = "沃金·佛布兰"
		name_list = "FUN3"
	}
	
	celimy = {
		language = "l_simp_chinese"
		name = 赛利姆y
		plural = 赛利姆安
		home_planet = 赛利姆
		home_system = "霍瓦西里姆·布"
		name_list = "FUN3"
	}
	
	pogovon = {
		language = "l_simp_chinese"
		name = 普戈万
		plural = 普戈万
		home_planet = 普戈万
		home_system = 科沃波
		name_list = "FUN3"
	}
	
	qasvalyvia = {
		language = "l_simp_chinese"
		name = 魁斯瓦雷维亚
		plural = 魁斯瓦雷维亚
		home_planet = 魁夫波尔福
		home_system = 魁夫波尔福格
		name_list = "FUN3"
	}
	
	avabbian = {
		language = "l_simp_chinese"
		name = 阿瓦比亚
		plural = 阿瓦比亚恩
		home_planet = 阿瓦比亚
		home_system = 哈亚罗巴瓦
		name_list = "FUN3"
	}
	
	lolehndra = {
		language = "l_simp_chinese"
		name = 洛勒恩达
		plural = 洛勒恩达
		home_planet = 罗里芬卓
		home_system = 艾吉芬德拉
		name_list = "FUN3"
	}
	
	reyubb = {
		language = "l_simp_chinese"
		name = 雷布
		plural = 雷布
		home_planet = "雷布·奥夫"
		home_system = 泽泽布
		name_list = "FUN3"
	}
	
	varelviv = {
		language = "l_simp_chinese"
		name = 瓦尔维夫
		plural = 瓦尔维夫
		home_planet = 维弗瓦
		home_system = "阿瓦福布"
		name_list = "FUN3"
	}
	
	zeppadroggan = {
		language = "l_simp_chinese"
		name = 泽帕多拉根
		plural = 泽帕多拉根
		home_planet = 帕德罗格
		home_system = 帕德罗格沃尔
		name_list = "FUN3"
	}
	
	buvhondon = {
		language = "l_simp_chinese"
		name = 布霍顿
		plural = 布霍迪安
		home_planet = 布霍顿
		home_system = "嘉熙·绪比"
		name_list = "FUN3"
	}
	
	valmennax = {
		language = "l_simp_chinese"
		name = 瓦尔门纳克
		plural = 瓦尔门纳克
		home_planet = 瓦马克斯
		home_system = "左普夫·伊娃"
		name_list = "FUN3"
	}
	
	huviduzaan = {
		language = "l_simp_chinese"
		name = 胡维杜赞
		plural = 胡维杜赞
		home_planet = 胡维杜莎
		home_system = 扎伊瓦
		name_list = "FUN3"
	}
	
	provalguvor = {
		language = "l_simp_chinese"
		name = 普罗威尔古弗尔
		plural = 普罗威尔古弗尔
		home_planet = 普罗威尔
		home_system = 伊思瓦拉
		name_list = "FUN3"
	}
	
	qlorvinserian = {
		language = "l_simp_chinese"
		name = 魁洛文瑟恩
		plural = 魁洛文瑟恩
		home_planet = 魁洛克
		home_system = 魁洛西索补
		name_list = "FUN3"
	}
	
	wulhubb = {
		language = "l_simp_chinese"
		name = 乌胡布
		plural = 乌胡布
		home_planet = 乌胡布a 
		home_system = 基布鲁瓦
		name_list = "FUN3"
	}
	
	caphevad = {
		language = "l_simp_chinese"
		name = 咖菲夫德
		plural = 咖菲夫迪
		home_planet = 咖菲夫
		home_system = 贝罗维
		name_list = "FUN3"
	}
	
	vool = {
		language = "l_simp_chinese"
		name = 沃尔
		plural = 沃尔安
		home_planet = 沃尔乌
		home_system = 沃尔乌姆
		name_list = "FUN3"
	}
	
	frubralav = {
		language = "l_simp_chinese"
		name = 福禄布拉维
		plural = 福禄布拉维
		home_planet = 福布拉
		home_system = 法布里海思
		name_list = "FUN3"
	}
	
	fjasivlin = {
		language = "l_simp_chinese"
		name = 福佳斯维林
		plural = 福佳斯维林
		home_planet = 福尔斯
		home_system = "博萨·辛得"
		name_list = "FUN3"
	}
	
	pobelin = {
		language = "l_simp_chinese"
		name = 普拜林
		plural = 普拜林
		home_planet = 普拜林纳
		home_system = 普尔布雷尔
		name_list = "FUN3"
	}
	
	laachax = {
		language = "l_simp_chinese"
		name = 拉夏克斯
		plural = 拉夏克斯
		home_planet = 拉夏克斯
		home_system = "格尔茨·拉夏克斯"
		name_list = "FUN3"
	}
	
	udkavongo = {
		language = "l_simp_chinese"
		name = 乌德卡冯哥
		plural = 乌德卡冯哥
		home_planet = 乌德卡尔
		home_system = "爪·瓦克塔拉"
		name_list = "FUN3"
	}
}

### ARTHROPOID

ART = {
	screk = {
		language = "l_simp_chinese"
		name = 席勒克
		plural = 席勒克恩
		home_planet = 席勒克恩
		home_system = 巴克特利
		name_list = "ART3"
	}

	xanyr = {
		language = "l_simp_chinese"
		name = 扎恩雅
		plural = 扎恩雅
		home_planet = 扎纳
		home_system = 普德普
		name_list = "ART3"
	}
	
	zaacplot = {
		language = "l_simp_chinese"
		name = 扎克普洛特
		plural = 扎克普洛特安
		home_planet = 扎克
		home_system = 俄拉斯阿尼尔
		name_list = "ART3"
	}

	vurxac = {
		language = "l_simp_chinese"
		name = 维尔萨克
		plural = 维尔萨克恩
		home_planet = 维尔萨卡
		home_system = "维尔维"
		name_list = "ART3"
	}

	opalglec = {
		language = "l_simp_chinese"
		name = 欧帕拉克
		plural = 欧帕拉克
		home_planet = 欧帕拉格
		home_system = 加卡嘎
		name_list = "ART3"
	}

	valurt = {
		language = "l_simp_chinese"
		name = 瓦鲁特
		plural = 瓦鲁特
		home_planet = 瓦鲁
		home_system = 洛克拉尔
		name_list = "ART3"
	}

	natfankan = {
		language = "l_simp_chinese"
		name = 纳特凡卡
		plural = 纳特凡卡
		home_planet = 凡卡
		home_system = "纳特·凡卡·迪"
		name_list = "ART3"
	}

	husko = {
		language = "l_simp_chinese"
		name = 哈斯克
		plural = 哈斯克
		home_planet = 虎龙
		home_system = 康格拉姆
		name_list = "ART3"
	}

	zaxxoid = {
		language = "l_simp_chinese"
		name = 扎克欧伊德
		plural = 扎克欧伊德
		home_planet = 扎欧克斯
		home_system = 欧克奥克斯
		name_list = "ART3"
	}
	
	dabbax = {
		language = "l_simp_chinese"
		name = 戴巴克斯
		plural = 戴巴克仙
		home_planet = "戴巴纳仙"
		home_system = 普尔克兰
		name_list = "ART3"
	}
	
	zemmerpuk = {
		language = "l_simp_chinese"
		name = 泽姆尔普克
		plural = 泽姆尔普坎
		home_planet = "泽姆·欧普克"
		home_system = 扎卡托利亚
		name_list = "ART3"
	}

	trakpocian = {
		language = "l_simp_chinese"
		name = 特拉克普仙
		plural = 特拉克普仙
		home_planet = 特拉克
		home_system = 普西甘克拉卡
		name_list = "ART3"
	}
	
	ytrellan = {
		language = "l_simp_chinese"
		name = 伊特瑞兰
		plural = 伊特瑞兰
		home_planet = 伊特拉
		home_system = 马克欧努克
		name_list = "ART3"
	}
	
	savixqast = {
		language = "l_simp_chinese"
		name = 萨维克魁斯特
		plural = 萨维克魁斯特
		home_planet = "萨维克"
		home_system = 魁斯特利亚尼
		name_list = "ART3"
	}
	
	qopinjaxi = {
		language = "l_simp_chinese"
		name = 奎品贾克希
		plural = 奎品贾克希
		home_planet = 奎普贾克希
		home_system = 贾克希欧莫克
		name_list = "ART3"
	}
	
	najklax = {
		language = "l_simp_chinese"
		name = 纳克拉夏
		plural = 纳克拉夏
		home_planet = 纳克拉夏
		home_system = 鲁加斯图克
		name_list = "ART3"
	}
	
	sakyt = {
		language = "l_simp_chinese"
		name = 萨凯特
		plural = 萨凯特恩
		home_planet = "萨凯特·乌克斯"
		home_system = 胡法克斯
		name_list = "ART3"
	}
	
	backatta = {
		language = "l_simp_chinese"
		name = 巴卡塔
		plural = 巴卡塔恩
		home_planet = 巴卡塔
		home_system = "巴·格拉克斯"
		name_list = "ART3"
	}
	
	xaplo = {
		language = "l_simp_chinese"
		name = 夏普洛
		plural = 夏普洛恩
		home_planet = 夏普洛
		home_system = 夏普洛纽斯
		name_list = "ART3"
	}
	
	uindar = {
		language = "l_simp_chinese"
		name = 乌因达尔
		plural = 乌因达尔
		home_planet = 乌因达尔亚
		home_system = 雅达雅克萨
		name_list = "ART3"
	}
	
	eruxo = {
		language = "l_simp_chinese"
		name = 欧罗科索
		plural = 欧罗科索安
		home_planet = "欧罗科索主星"
		home_system = 奥普利麦克斯
		name_list = "ART3"
	}
	
	spuxulac = {
		language = "l_simp_chinese"
		name = 思普库拉克
		plural = 思普库拉克
		home_planet = "雄伟思普库拉克"
		home_system = 哈夏卡
		name_list = "ART3"
	}
	
	multyx = {
		language = "l_simp_chinese"
		name = 穆尔缇可
		plural = 穆尔缇可
		home_planet = 穆尔缇可
		home_system = 尼尔帕科索
		name_list = "ART3"
	}
	
	cilxtac = {
		language = "l_simp_chinese"
		name = 希克塔克
		plural = 希特塔克恩
		home_planet = "希特卡主星"
		home_system = 维德兰克斯
		name_list = "ART3"
	}
	
	ztrakpor = {
		language = "l_simp_chinese"
		name = 卓博尔
		plural = 卓博尔兰
		home_planet = 卓博尔
		home_system = 卓博尔
		name_list = "ART3"
	}
	
	tchaaskeran = {
		language = "l_simp_chinese"
		name = 茶斯克兰
		plural = 茶斯克兰
		home_planet = 茶博尔
		home_system = 茶博尔-科尔斯
		name_list = "ART3"
	}
	
	yaxkalock = {
		language = "l_simp_chinese"
		name = 雅克卡洛克
		plural = 雅克卡洛克
		home_planet = 茶博尔
		home_system = 茶博尔
		name_list = "ART3"
	}
	
	vunokon = {
		language = "l_simp_chinese"
		name = 温欧康
		plural = 温欧康
		home_planet = 多拉伊普
		home_system = 多拉伊普卡米纳
		name_list = "ART3"
	}
}

### REPTILIAN

REP = {
	raxthalak = {
		language = "l_simp_chinese"
		name = 雷克索拉克
		plural = 雷克索拉克
		home_planet = 雷克索拉克
		home_system = 索拉金
		name_list = "REP1"
	}
	
	thekqlak = {
		language = "l_simp_chinese"
		name = 赛克奎拉克
		plural = 赛克奎拉克
		home_planet = 魁拉克
		home_system = 魁拉奇多克
		name_list = "REP2"
	}
	
	bospachtux = {
		language = "l_simp_chinese"
		name = 波斯帕图克斯
		plural = 波斯帕图克斯
		home_planet = 图克西卡
		home_system = 波斯图克斯卡
		name_list = "REP3"
	}

	mectpux = {
		language = "l_simp_chinese"
		name = 迈特帕克斯
		plural = 迈特帕克斯
		home_planet = 祖伊弗
		home_system = 祖弗尔
		name_list = "REP1"
	}
	
	othethi = {
		language = "l_simp_chinese"
		name = 欧塞西
		plural = 欧塞西
		home_planet = 玛塔尔
		home_system = 玛塔利尔
		name_list = "REP2"
	}

	oxbraxi = {
		language = "l_simp_chinese"
		name = 奥克布莱希
		plural = 奥克布莱希
		home_planet = 奥克西纳克
		home_system = 奥克西纳克维拉
		name_list = "REP3"
	}

	zaydran = {
		language = "l_simp_chinese"
		name = 扎伊德兰
		plural = 扎伊德兰
		home_planet = 亚德拉
		home_system = 亚德拉克
		name_list = "REP1"
	}

	nharr = {
		language = "l_simp_chinese"
		name = 纳尔
		plural = 纳利安
		home_planet = 纳尔
		home_system = 纳尔博
		name_list = "REP2"
	}
	
	zukakkan = {
		language = "l_simp_chinese"
		name = 祖卡坎
		plural = 祖姆
		home_planet = 祖凯
		home_system = 祖凯蒙多尔
		name_list = "REP3"
	}
	
	seklokkar = {
		language = "l_simp_chinese"
		name = 赛克罗卡尔
		plural = 赛克罗卡利安
		home_planet = 罗坎
		home_system = "罗坎·贾科"
		name_list = "REP1"
	}
	
	netraxi = {
		language = "l_simp_chinese"
		name = 尼特拉克西
		plural = 尼特拉克西
		home_planet = 尼特拉克西
		home_system = 尼特拉克西阿萨卡
		name_list = "REP2"
	}
	
	dimaxanian = {
		language = "l_simp_chinese"
		name = 迪马扎恩
		plural = 迪马扎恩
		home_planet = 扎尼亚
		home_system = "扎尼·纳迪"
		name_list = "REP3"
	}
	
	vagoross = {
		language = "l_simp_chinese"
		name = 瓦格欧罗斯
		plural = 瓦格欧罗斯
		home_planet = 奥洛斯
		home_system = 奥洛斯胡瓦克
		name_list = "REP1"
	}
	
	Kalaxenan = {
		language = "l_simp_chinese"
		name = 卡拉克南
		plural = 卡拉克南
		home_planet = 伊帕戈
		home_system = "伊帕戈·泰尔"
		name_list = "REP2"
	}
	
	fexklanga = {
		language = "l_simp_chinese"
		name = 费克兰加
		plural = 费克兰加
		home_planet = 费克拉
		home_system = 费克兰斯加
		name_list = "REP3"
	}
	
	tuxkan = {
		language = "l_simp_chinese"
		name = 图克坎
		plural = 图克坎
		home_planet = 图克卡
		home_system = 图克卡利
		name_list = "REP1"
	}
	
	gox = {
		language = "l_simp_chinese"
		name = 哥克西
		plural = 哥克西
		home_planet = 瓦克拉夏
		home_system = 杜-拉夏-纳克斯
		name_list = "REP2"
	}
	
	rakthalaknak = {
		language = "l_simp_chinese"
		name = 拉克索拉克纳克
		plural = 拉克索拉克纳其
		home_planet = 拉克索拉克纳克
		home_system = "拉克纳克萨克斯"
		name_list = "REP3"
	}
	
	bokasheran = {
		language = "l_simp_chinese"
		name = 博卡谢兰
		plural = 博卡谢兰
		home_planet = 薛拉克
		home_system = 阿西尔拉卡
		name_list = "REP1"
	}
	
	adeex = {
		language = "l_simp_chinese"
		name = 阿戴克
		plural = 阿戴克
		home_planet = 戴克斯
		home_system = 扎恩德拉
		name_list = "REP2"
	}
	
	rothak = {
		language = "l_simp_chinese"
		name = 罗萨克
		plural = 罗萨克
		home_planet = 罗萨克
		home_system = 维塞姆卡拉克
		name_list = "REP3"
	}
	
	steccashi = {
		language = "l_simp_chinese"
		name = 斯特卡什
		plural = 斯特卡什
		home_planet = 乌蜀
		home_system = "乌斯卡尔·欧佩谢"
		name_list = "REP1"
	}
	
	xulokako = {
		language = "l_simp_chinese"
		name = 叙洛卡克
		plural = 叙科卡克
		home_planet = 叙科卡
		home_system = 叙科卡利吉
		name_list = "REP2"
	}
	
	gargaxton = {
		language = "l_simp_chinese"
		name = 珈尔加克顿
		plural = 珈尔加克顿
		home_planet = 勒斯托拉
		home_system = 奎尔莱斯特
		name_list = "REP3"
	}
	
	loxungrakva = {
		language = "l_simp_chinese"
		name = 洛克乌格拉克瓦
		plural = 洛克乌格拉克瓦
		home_planet = 洛克乌格拉克
		home_system = 洛克乌格拉克欧
		name_list = "REP1"
	}
}

### AVIAN (editme)

AVI = {
	uvaxavani = {
		language = "l_simp_chinese"
		name = 乌瓦-扎瓦纳
		plural = 乌瓦-扎瓦纳
		home_planet = "乌瓦-扎瓦纳主星"
		home_system = 山塔夏瓦尼
		name_list = "AVI1"
	}
	
	qvefoz = {
		language = "l_simp_chinese"
		name = 魁夫兹
		plural = 魁夫兹
		home_planet = 巴尔科加斯
		home_system = 巴尔科加斯伊塔
		name_list = "AVI2"
	}

	jasgavaz = {
		language = "l_simp_chinese"
		name = 贾斯尕瓦茨
		plural = 贾斯尕瓦茨
		home_planet = 嘉瓦兹
		home_system = 嘉瓦兹旭尔
		name_list = "AVI3"
	}

	yvzorak = {
		language = "l_simp_chinese"
		name = 伊夫左拉克
		plural = 伊夫左拉克
		home_planet = "伊夫左拉克主星"
		home_system = 图克利左拉克
		name_list = "AVI1"
	}

	sintomoroi = {
		language = "l_simp_chinese"
		name = 辛托莫洛
		plural = 辛托莫洛
		home_planet = "辛托莫洛·贾克帕克"
		home_system = 辛托莫洛乌塔拉克
		name_list = "AVI2"
	}
	
	qixlufran = {
		language = "l_simp_chinese"
		name = 奇克鲁弗兰
		plural = 奇克鲁弗兰
		home_planet = 奇克鲁弗兰
		home_system = 奇克普科特拉克
		name_list = "AVI3"
	}
	
	mithfell = {
		language = "l_simp_chinese"
		name = 密斯菲尔
		plural = 密斯菲尔
		home_planet = "坎·朱克拉"
		home_system = "坎·朱克拉·米克"
		name_list = "AVI1"
	}
	
	tilllynesi = {
		language = "l_simp_chinese"
		name = 提留林奈斯
		plural = 提留林奈斯
		home_planet = 提留拉
		home_system = "提留·爵克斯"
		name_list = "AVI2"
	}
	
	jessinax = {
		language = "l_simp_chinese"
		name = 杰斯伊纳克
		plural = 杰斯伊纳克
		home_planet = 杰斯伊纳克
		home_system = "杰斯·伊纳克帕"
		name_list = "AVI3"
	}
	
	boki = {
		language = "l_simp_chinese"
		name = 波奇
		plural = 波奇
		home_planet = 波奇格鲁姆
		home_system = 格鲁姆布克
		name_list = "AVI1"
	}

	essjaggon = {
		language = "l_simp_chinese"
		name = 埃斯雅格
		plural = 埃斯雅格
		home_planet = 贾戈
		home_system = 贾克塔格
		name_list = "AVI2"
	}
	
	juvan = {
		language = "l_simp_chinese"
		name = 朱万
		plural = 朱万
		home_planet = 朱万
		home_system = 朱万厄多尔
		name_list = "AVI3"
	}
	
	iztran = {
		language = "l_simp_chinese"
		name = 伊兹特兰
		plural = 伊兹特兰
		home_planet = 罗夏克斯
		home_system = 罗夏克欧
		name_list = "AVI1"
	}
	
	helvan = {
		language = "l_simp_chinese"
		name = 赫尔凡
		plural = 赫尔凡
		home_planet = "赫尔凡主星"
		home_system = 赫尔凡-卓
		name_list = "AVI2"
	}
	
	ozkox = {
		language = "l_simp_chinese"
		name = 欧佐科斯
		plural = 欧佐科西
		home_planet = "欧佐科斯主星"
		home_system = 斯劳兹科
		name_list = "AVI2"
	}
	
	fafossan = {
		language = "l_simp_chinese"
		name = 法夫森
		plural = 法夫森
		home_planet = "法夫主星"
		home_system = 法夫森加
		name_list = "AVI3"
	}
	
	gulkfurki = {
		language = "l_simp_chinese"
		name = 加尔克弗奇
		plural = 加尔克弗奇
		home_planet = 加尔克
		home_system = 加尔坎图克
		name_list = "AVI1"
	}
	
	Haahn = {
		language = "l_simp_chinese"
		name = 哈恩
		plural = 哈恩
		home_planet = 川塔提卡
		home_system = "川塔提卡·卢卡纳"
		name_list = "AVI2"
	}
	
	twaxihdar = {
		language = "l_simp_chinese"
		name = 托克斯伊达
		plural = 托克斯伊达
		home_planet = "托克斯主星"
		home_system = 托克斯达
		name_list = "AVI3"
	}
	
	uvxantt = {
		language = "l_simp_chinese"
		name = 乌弗-扎特
		plural = 乌弗-扎特
		home_planet = "弗兰肯依·伊萨特"
		home_system = 弗兰肯依
		name_list = "AVI1"
	}
	
	kraxroz = {
		language = "l_simp_chinese"
		name = 柯拉克罗茨
		plural = 柯拉克罗茨
		home_planet = 米达克
		home_system = 米珊
		name_list = "AVI2"
	}
	
	yssravannar = {
		language = "l_simp_chinese"
		name = 伊思拉瓦纳
		plural = 伊思拉瓦纳
		home_planet = 欧佩拉
		home_system = "欧佩拉·矩科"
		name_list = "AVI3"
	}
	
	haspalv = {
		language = "l_simp_chinese"
		name = 哈斯佩夫
		plural = 哈斯佩夫
		home_planet = 哈斯佩夫
		home_system = 哈斯佩夫米纳
		name_list = "AVI1"
	}
	
	pelxcradonian = {
		language = "l_simp_chinese"
		name = 佩尔克卡拉顿
		plural = 佩尔克卡拉顿
		home_planet = 克拉顿
		home_system = 克拉顿亚纳
		name_list = "AVI2"
	}
	
	jaazijan = {
		language = "l_simp_chinese"
		name = 贾兹真
		plural = 贾兹真
		home_planet = 佩恩斯鲁
		home_system = 佩恩卡
		name_list = "AVI3"
	}
	
	qravadox = {
		language = "l_simp_chinese"
		name = 奎瓦多克西
		plural = 奎瓦多克西
		home_planet = 奎瓦
		home_system = 奎特拉弗拉纳
		name_list = "AVI1"
	}
}

### MOLLUSCOID

MOL = {
	djomar = {
		language = "l_simp_chinese"
		name = 卓玛尔
		plural = 卓玛尔
		home_planet = "卓·费马丽"
		home_system = 赛马卓
		name_list = "MOL3"
	}
	
	mathin = {
		language = "l_simp_chinese"
		name = 马西
		plural = 马西
		home_planet = "马西尼主星"
		home_system = 马西尼斯
		name_list = "MOL3"
	}
	
	malwegoll = {
		language = "l_simp_chinese"
		name = 马尔维戈
		plural = 马尔维戈
		home_planet = 维格拉
		home_system = "维格拉·乌塔"
		name_list = "MOL3"
	}
	
	alvothari = {
		language = "l_simp_chinese"
		name = 艾尔沃萨里
		plural = 艾尔沃萨里
		home_planet = 艾尔沃
		home_system = 索锐
		name_list = "MOL3"
	}
	
	hathgum = {
		language = "l_simp_chinese"
		name = 哈希古玛
		plural = 哈希古玛
		home_planet = 哈希古姆a
		home_system = 古玛
		name_list = "MOL3"
	}
	
	uri = {
		language = "l_simp_chinese"
		name = 乌瑞
		plural = 乌瑞托尼恩
		home_planet = "乌尔·伊德拉"
		home_system = "乌尔·伊萨"
		name_list = "MOL3"
	}
	
	havoll = {
		language = "l_simp_chinese"
		name = 哈沃拉
		plural = 哈沃拉
		home_planet = 哈沃
		home_system = "哈沃拉·盖斯"
		name_list = "MOL3"
	}
	
	ymacera = {
		language = "l_simp_chinese"
		name = 伊玛克拉
		plural = 伊玛克拉
		home_planet = 伊玛卡
		home_system = 塞拉坎
		name_list = "MOL3"
	}
	
	jogollwa = {
		language = "l_simp_chinese"
		name = 约哥瓦
		plural = 约哥瓦
		home_planet = 欧格
		home_system = 瓦恩约格
		name_list = "MOL3"
	}
	
	usanace = {
		language = "l_simp_chinese"
		name = 乌萨纳斯
		plural = 乌萨纳坎
		home_planet = 萨那坎
		home_system = "乌-萨那-伊特卡尔"
		name_list = "MOL3"
	}
	
	havarigga = {
		language = "l_simp_chinese"
		name = 哈瓦力加
		plural = 哈瓦力加
		home_planet = 利佳
		home_system = "哈瓦力"
		name_list = "MOL3"
	}
	
	slerpanor = {
		language = "l_simp_chinese"
		name = 斯勒帕诺
		plural = 斯勒帕诺
		home_planet = "乐潘·索"
		home_system = 斯勒帕琴
		name_list = "MOL3"
	}
	
	fellnoll = {
		language = "l_simp_chinese"
		name = 菲尔诺
		plural = 菲尔诺兰
		home_planet = 菲尔诺
		home_system = "摩特·菲力诺"
		name_list = "MOL3"
	}
	
	sirgogg = {
		language = "l_simp_chinese"
		name = 希尔戈
		plural = 希尔戈
		home_planet = 瓦斯格格
		home_system = 瓦特吉衮
		name_list = "MOL3"
	}
	
	obadin = {
		language = "l_simp_chinese"
		name = 奥巴丁
		plural = 奥巴丁
		home_planet = 奥巴丁
		home_system = "欧达卡"
		name_list = "MOL3"
	}
	
	yalon = {
		language = "l_simp_chinese"
		name = 耶尔龙
		plural = 耶尔龙
		home_planet = 耶尔
		home_system = "皮克纳·耶尔"
		name_list = "MOL3"
	}
	
	dyss = {
		language = "l_simp_chinese"
		name = 戴斯
		plural = 戴萨尼
		home_planet = 赛尔
		home_system = 迪斯赛尔
		name_list = "MOL3"
	}
	
	gwesibor = {
		language = "l_simp_chinese"
		name = 温斯博尔
		plural = 温斯博尔兰
		home_planet = 温斯博尔兰
		home_system = 哈奇波利
		name_list = "MOL3"
	}
	
	andigonj = {
		language = "l_simp_chinese"
		name = 安迪贡
		plural = 安迪贡
		home_planet = 贡吉
		home_system = 安欧恩
		name_list = "MOL3"
	}
	
	grollferp = {
		language = "l_simp_chinese"
		name = 格洛拉费普
		plural = 格洛拉费普
		home_planet = 格洛拉 
		home_system = 珈蓝费普
		name_list = "MOL3"
	}
	
	sondrithan = {
		language = "l_simp_chinese"
		name = 松德里萨恩
		plural = 松德里萨恩
		home_planet = 松德里萨
		home_system = 阿巴卡努斯松德里
		name_list = "MOL3"
	}
	
	hjannarthi = {
		language = "l_simp_chinese"
		name = 夏纳尔希
		plural = 夏纳尔希
		home_planet = 阿卡玛拉坎
		home_system = 阿卡玛布克
		name_list = "MOL3"
	}
	
	domanna = {
		language = "l_simp_chinese"
		name = 多玛纳
		plural = 多玛楠
		home_planet = 多玛尼卡
		home_system = 佩托尔普
		name_list = "MOL3"
	}
	
	wacegi = {
		language = "l_simp_chinese"
		name = 瓦斯吉
		plural = 瓦斯吉
		home_planet = 瓦斯格
		home_system = "瓦斯格·伊福特拉"
		name_list = "MOL3"
	}
	
	norillga = {
		language = "l_simp_chinese"
		name = 诺力佳
		plural = 诺力佳
		home_planet = 纳维利尔
		home_system = 内维德拉尔
		name_list = "MOL3"
	}
	
	laginchuuz = {
		language = "l_simp_chinese"
		name = 拉金秋茨
		plural = 拉金秋茨
		home_planet = 拉金秋
		home_system = 洛格拉夏纳
		name_list = "MOL3"
	}
	
	moijhuxgan = {
		language = "l_simp_chinese"
		name = 魔杰胡克甘
		plural = 魔杰胡克甘
		home_planet = 马奇
		home_system = 胡克甘尼佳
		name_list = "MOL3"
	}
}

### PLANTOIDS

PLANT = {
	lozavata = {
		language = "l_simp_chinese"
		name = 洛扎瓦特
		plural = 洛扎瓦特
		home_planet = "洛扎瓦特主星"
		home_system = 洛扎
		name_list = "PLANT"
	}

	queptilium = {
		language = "l_simp_chinese"
		name = 奎普帝留姆
		plural = 奎普帝留姆
		home_planet = "奎普帝留姆主星"
		home_system = 奎普塔
		name_list = "PLANT2"
	}

	lilarobius = {
		language = "l_simp_chinese"
		name = 里拉罗布斯
		plural = 里拉罗布斯
		home_planet = "里拉罗布斯主星"
		home_system = 里拉罗
		name_list = "PLANT3"
	}

	vetirisio = {
		language = "l_simp_chinese"
		name = 维特里希
		plural = 维特里希
		home_planet = "维提利斯主星"
		home_system = 维特里
		name_list = "PLANT"
	}

	belmacosa = {
		language = "l_simp_chinese"
		name = 比尔马克萨
		plural = 比尔马克萨
		home_planet = "比尔马克萨主星"
		home_system = 比尔姆
		name_list = "PLANT2"
	}

	panaxala = {
		language = "l_simp_chinese"
		name = 潘娜夏拉
		plural = 潘娜夏拉
		home_planet = "潘娜夏拉主星"
		home_system = 潘娜夏
		name_list = "PLANT3"
	}

	ganvius = {
		language = "l_simp_chinese"
		name = 纲维斯
		plural = 纲维
		home_planet = "纲维斯主星"
		home_system = 纲瓦
		name_list = "PLANT"
	}

	caloctora = {
		language = "l_simp_chinese"
		name = 卡洛克托亚
		plural = 卡洛克托亚
		home_planet = "卡洛克托亚主星"
		home_system = 卡洛克
		name_list = "PLANT2"
	}

	vivisandia = {
		language = "l_simp_chinese"
		name = 维维珊迪
		plural = 维维珊迪
		home_planet = "维维珊迪主星"
		home_system = 维维斯
		name_list = "PLANT3"
	}

	sidimatus = {
		language = "l_simp_chinese"
		name = 希德马图斯
		plural = 希德马图斯
		home_planet = "希德马图斯主星"
		home_system = 希德马
		name_list = "PLANT"
	}

	mandasura = {
		language = "l_simp_chinese"
		name = 曼达苏拉
		plural = 曼达苏拉
		home_planet = "曼达苏拉主星"
		home_system = 曼达苏
		name_list = "PLANT2"
	}

	mirovandia = {
		language = "l_simp_chinese"
		name = 汨罗范狄亚
		plural = 汨罗范狄亚
		home_planet = "汨罗范狄亚主星"
		home_system = 汨罗
		name_list = "PLANT3"
	}

	pelisimus = {
		language = "l_simp_chinese"
		name = 佩里西姆
		plural = 佩里西姆
		home_planet = "佩里西姆主星"
		home_system = 佩里西
		name_list = "PLANT"
	}

	lavis = {
		language = "l_simp_chinese"
		name = 拉维斯
		plural = 拉维斯
		home_planet = "拉维斯主星"
		home_system = 拉夫
		name_list = "PLANT2"
	}
	
	raxycodium = {
		language = "l_simp_chinese"
		name = 拉克西科迪
		plural = 拉克西科迪
		home_planet = "拉克西科迪主星"
		home_system = 拉克西科
		name_list = "PLANT3"
	}
}

### HUMANOIDS

HUM = {

	khellzen = {
		language = "l_simp_chinese"
		name = 凯尔赞
		plural = 凯尔赞
		home_planet = 凯尔扎卡
		home_system = 凯尔
		name_list = "HUM1"
	}
	
	sutharian = {
		language = "l_simp_chinese"
		name = 苏萨里安
		plural = 苏萨里安
		home_planet = 苏萨里亚
		home_system = 苏斯卡萨
		name_list = "HUM2"
	}
	
	velutarian = {
		language = "l_simp_chinese"
		name = 纬路塔利安
		plural = 纬路塔利安
		home_planet = "纬路塔利亚主星"
		home_system = 纬路塔利亚
		name_list = "MAM1"
	}
	
	zelvan = {
		language = "l_simp_chinese"
		name = 泽尔凡
		plural = 泽尔凡
		home_planet = 泽尔维坎纳
		home_system = 泽尔维纳克
		name_list = "MAM1"
	}
	
	quenti = {
		language = "l_simp_chinese"
		name = 奎恩提
		plural = 奎恩提
		home_planet = 比拉纳
		home_system = 希布努扎
		name_list = "MAM2"
	}
	
	rihinar = {
		language = "l_simp_chinese"
		name = 利希纳
		plural = 利希纳
		home_planet = 利希
		home_system = 尼里
		name_list = "MAM2"
	}
	
	prossnakan = {
		language = "l_simp_chinese"
		name = 普洛斯纳坎
		plural = 普洛斯纳坎
		home_planet = 普洛斯
		home_system = 普洛斯纳克
		name_list = "MAM3"
	}
	
	mitron = {
		language = "l_simp_chinese"
		name = 米特伦
		plural = 米特伦
		home_planet = 米特拉
		home_system = 米图哈尔
		name_list = "MAM3"
	}
	
	cevelli = {
		language = "l_simp_chinese"
		name = 塞维利
		plural = 塞维利
		home_planet = 赛凡西亚
		home_system = 伊玛卡
		name_list = "MAM4"
	}
	
	panuri = {
		language = "l_simp_chinese"
		name = 潘娜利
		plural = 潘娜利
		home_planet = "潘娜苏主星"
		home_system = 潘娜苏
		name_list = "MAM4"
	}
	
	ylkhahan = {
		language = "l_simp_chinese"
		name = 伊尔卡罕
		plural = 伊尔卡罕
		home_planet = 卡赞
		home_system = 科萨达
		name_list = "HUM1"
	}
	
	giranshu = {
		language = "l_simp_chinese"
		name = 吉兰舒
		plural = 吉兰舒
		home_planet = 吉里达尔
		home_system = 贾吉尔沙
		name_list = "HUM1"
	}
	
	bebaki = {
		language = "l_simp_chinese"
		name = 贝巴克
		plural = 贝巴克
		home_planet = 贝巴克
		home_system = 巴巴卡
		name_list = "HUM2"
	}
	
	alvanian = {
		language = "l_simp_chinese"
		name = 埃尔瓦恩
		plural = 埃尔瓦恩
		home_planet = "古埃尔瓦尼亚"
		home_system = 艾尔福斯
		name_list = "HUM2"
	}
}

### LITHOIDS

LITHOID = {
	tharbarite = {
		language = "l_simp_chinese"
		name = 萨耳巴瑞特
		plural = 萨耳巴瑞特
		home_planet = 萨耳巴
		home_system = 萨尔
		name_list = "LITHOID1"
	}

	evarite = {
		language = "l_simp_chinese"
		name = 艾万瑞特
		plural = 艾万瑞特
		home_planet = "艾万瑞首星"
		home_system = 艾万瑞
		name_list = "LITHOID2"
	}

	praku = {
		language = "l_simp_chinese"
		name = 普拉库
		plural = 普拉库
		home_planet = "普拉库中心"
		home_system = 普拉克
		name_list = "LITHOID3"
	}

	rak-rak = {
		language = "l_simp_chinese"
		name = 拉克-拉克
		plural = 拉克-拉克
		home_planet = 如克-拉克
		home_system = 如克
		name_list = "LITHOID4"
	}

	yru = {
		language = "l_simp_chinese"
		name = 伊如
		plural = 伊如
		home_planet = 伊拉
		home_system = 伊瑞
		name_list = "LITHOID1"
	}

	kodranite = {
		language = "l_simp_chinese"
		name = 科多拉内特
		plural = 科多拉内特
		home_planet = 科多拉
		home_system = "科多拉尼尔"
		name_list = "LITHOID2"
	}

	cherk = {
		language = "l_simp_chinese"
		name = 切尔克
		plural = 切尔克
		home_planet = 切尔克
		home_system = 沙哈纳
		name_list = "LITHOID3"
	}

	tavurite = {
		language = "l_simp_chinese"
		name = 塔兀里特
		plural = 塔兀里特
		home_planet = 塔乌
		home_system = "塔-苏"
		name_list = "LITHOID4"
	}

	ti-zru = {
		language = "l_simp_chinese"
		name = 悌-兹鲁
		plural = 悌-匝
		home_planet = 悌-匝
		home_system = 悌
		name_list = "LITHOID1"
	}

	polvanite = {
		language = "l_simp_chinese"
		name = 波万奈特
		plural = 波万奈特
		home_planet = 波万
		home_system = 波乌斯
		name_list = "LITHOID2"
	}

	ithill = {
		language = "l_simp_chinese"
		name = 艾斯尔
		plural = 艾斯尔
		home_planet = 艾斯依
		home_system = 艾斯
		name_list = "LITHOID3"
	}

	irzuku = {
		language = "l_simp_chinese"
		name = 艾尔祖库
		plural = 艾尔祖库
		home_planet = 艾尔斯克
		home_system = 祖库
		name_list = "LITHOID4"
	}

	glirr = {
		language = "l_simp_chinese"
		name = 格里尔
		plural = 格里尔
		home_planet = 格里瑞亚
		home_system = 格里瓦萨
		name_list = "LITHOID1"
	}

	qvagh = {
		language = "l_simp_chinese"
		name = 库瓦格
		plural = 库瓦基
		home_planet = 库瓦
		home_system = 库瓦汗
		name_list = "LITHOID2"
	}

	zurite = {
		language = "l_simp_chinese"
		name = 祖尔艾特
		plural = 祖尔艾特
		home_planet = 祖尔乌
		home_system = 祖尔乌
		name_list = "LITHOID3"
	}

	oviir = {
		language = "l_simp_chinese"
		name = 奥维依尔
		plural = 奥维依利
		home_planet = 奥维依
		home_system = "大奥维依"
		name_list = "LITHOID4"
	}

	rukkari = {
		language = "l_simp_chinese"
		name = 卢卡莉
		plural = 卢卡莉
		home_planet = 卢克
		home_system = 卢克-安特
		name_list = "LITHOID1"
	}

	uraki = {
		language = "l_simp_chinese"
		name = 尤卡吉
		plural = 尤卡吉
		home_planet = 沃利奥特
		home_system = 尤卡库
		name_list = "LITHOID2"
	}

	bodranite = {
		language = "l_simp_chinese"
		name = 伯德拉奈特
		plural = 伯德拉奈特
		home_planet = "伯德利拉"
		home_system = 伯德
		name_list = "LITHOID3"
	}

	vran = {
		language = "l_simp_chinese"
		name = 乌兰
		plural = 乌兰尼
		home_planet = "乌兰首星"
		home_system = 乌兰奈
		name_list = "LITHOID4"
	}

	zri = {
		language = "l_simp_chinese"
		name = 兹伊
		plural = 兹伊
		home_planet = 兹伊沙
		home_system = 兹伊萨
		name_list = "LITHOID1"
	}

	vuur = {
		language = "l_simp_chinese"
		name = 乌尔
		plural = 乌尔尼
		home_planet = 瓦尔
		home_system = 瓦尔鲁斯
		name_list = "LITHOID2"
	}

	croll = {
		language = "l_simp_chinese"
		name = 克诺尔
		plural = 克诺尔
		home_planet = 克诺鲁斯
		home_system = 克诺匝
		name_list = "LITHOID3"
	}

	bruvan = {
		language = "l_simp_chinese"
		name = 布鲁万
		plural = 布鲁万
		home_planet = 布鲁乌
		home_system = 布鲁瓦斯
		name_list = "LITHOID4"
	}

	hrun = {
		language = "l_simp_chinese"
		name = 胡-鲁尼
		plural = 胡-鲁尼
		home_planet = 鲁尼
		home_system = 鲁尼-佛
		name_list = "LITHOID1"
	}

	rhonzar = {
		language = "l_simp_chinese"
		name = 龙扎
		plural = 龙扎
		home_planet = 龙扎
		home_system = "龙扎-伽里夫"
		name_list = "LITHOID2"
	}

	bhiir = {
		language = "l_simp_chinese"
		name = 皮伊尔
		plural = 皮伊莉
		home_planet = 皮伊拉
		home_system = 葩尔苏
		name_list = "LITHOID3"
	}

	bzadi = {
		language = "l_simp_chinese"
		name = 巴扎迪
		plural = 巴扎迪
		home_planet = 哈-巴扎迪
		home_system = 巴扎德
		name_list = "LITHOID4"
	}

	mtok = {
		language = "l_simp_chinese"
		name =姆-托克
		plural = 姆-托克
		home_planet = 姆-瓦勒库
		home_system = 姆-法卢克
		name_list = "LITHOID1"
	}

	makar = {
		language = "l_simp_chinese"
		name = 玛-卡尔
		plural = 玛-卡瑞
		home_planet = 泰勒-霍
		home_system = 科什-科哈
		name_list = "LITHOID2"
	}

	shapa = {
		language = "l_simp_chinese"
		name = 夏帕
		plural = 夏帕
		home_planet = 夏帕拉
		home_system = 夏帕
		name_list = "LITHOID3"
	}

	ferbanite = {
		language = "l_simp_chinese"
		name = 佛本耐特
		plural = 佛本耐特
		home_planet = 佛本耐特
		home_system = 吉乌
		name_list = "LITHOID4"
	}

	pliffplaff = {
		language = "l_simp_chinese"
		name = 普利夫-普拉夫
		plural = 普利夫普拉夫
		home_planet = 普利夫
		home_system = 普拉佛
		name_list = "LITHOID1"
	}
}
