# Generated species derive their names from here

### HUMANOIDS

HUM = {
	alari = {
		name = Alari
		plural = Alari
		home_planet = Alaria
		home_system = Alar
		name_list = "HUM1"
	}	
	
	mireesh = {
		name = Mireesh
		plural = Mireeshi
		home_planet = Mirati
		home_system = "Mireesh Mar"
		name_list = "HUM2"
	}
	
	triech = {
		name = Triech
		plural = Triechs
		home_planet = Triech
		home_system = Rechio
		name_list = "HUM3"
	}
	
	vrinn = {
		name = Vrinn
		plural = Vrinn
		home_planet = Vrinn
		home_system = Vrinnus
		name_list = "HUM4"
	}
	
	cevanti = {
		name = Cevanti
		plural = Cevanti
		home_planet = Oros
		home_system = Cevant 
		name_list = "HUM1"
	}
	
	mishar = {
		name = Mishar
		plural = Mishars
		home_planet = Mishri
		home_system = Shar
		name_list = "HUM2"
	}
	
	fareen = {
		name = Fareen
		plural = Fareens
		home_planet = Fara
		home_system = Enato
		name_list = "HUM3"
	}
	
	yldar = {
		name = Yldar
		plural = Yldars
		home_planet = Yldar
		home_system = Yliant
		name_list = "HUM4"
	}
	
	korinth = {
		name = Korinth
		plural = Korinths
		home_planet = Koros
		home_system = Korinth
		name_list = "HUM1"
	}
		
	sildor = {
		name = Sildor
		plural = Sildors
		home_planet = Sildoria
		home_system = Sila
		name_list = "HUM2"
	}

	nagyari = {
		name = Nagyari
		plural = Nagyari
		home_planet = Nagyaria
		home_system = Nagyar
		name_list = "HUM3"
	}

	kobarian = {
		name = Kobarian
		plural = Kobarians
		home_planet = Kobaria
		home_system = Kobb
		name_list = "HUM4"
	}

	Hesukar = {
		name = Hesukar
		plural = Hesukari
		home_planet = "Hesuk Prime"
		home_system = Hesuk
		name_list = "HUM1"
	}

	giroid = {
		name = Giroid
		plural = Giroids
		home_planet = Gir-Zana
		home_system = Gir
		name_list = "HUM2"
	}

	akkano = {
		name = Akkano
		plural = Akkanos
		home_planet = Akkanar
		home_system = Akk
		name_list = "HUM3"
	}
}

### MAMMALIANS

MAM = {
	kroll = {
		name = Kroll
		plural = Kroll
		home_planet = "Krolldar Prime"
		home_system = Krolldar
		name_list = "MAM1"
	}

	orassian = {
		name = Orassian
		plural = Orassians
		home_planet = Orassia
		home_system = Orass
		name_list = "MAM2"
	}

	aramathi = {
		name = Aramathi
		plural = Aramathi
		home_planet = Arakim
		home_system = Aramus
		name_list = "MAM3"
	}
		
	immutharan = {
		name = Immutharan
		plural = Immutharans
		home_planet = Immuth
		home_system = Immuthor
		name_list = "MAM4"
	}

	hiffnar = {
		name = Hiffnar
		plural = Hiffnari
		home_planet = Hiffnus
		home_system = Hiff
		name_list = "MAM1"
	}
	
	zaanami = {
		name = Zaanami
		plural = Zaanami
		home_planet = Zaanamar
		home_system = Zaan
		name_list = "MAM2"
	}

	estwani = {
		name = Estwani
		plural = Estwani
		home_planet = Estwaana
		home_system = Wani
		name_list = "MAM3"
	}

	vailon = {
		name = Vailon
		plural = Vailons
		home_planet = Vallgar
		home_system = Vidirion
		name_list = "MAM4"
	}

	raltek = {
		name = Raltek
		plural = Raltek
		home_planet = "Ratann Bir"
		home_system = Raltess
		name_list = "MAM1"
	}

	birnathi = {
		name = Birnathi
		plural = Birnathi
		home_planet = Birnus
		home_system = Dethirus
		name_list = "MAM2"
	}

	othari = {
		name = Othari
		plural = Othari
		home_planet = Otharia
		home_system = Othor
		name_list = "MAM3"
	}

	evandari = {
		name = Evandari
		plural = Evandari
		home_planet = "Evanda Zuun"
		home_system = Evon
		name_list = "MAM4"
	}

	bothrian = {
		name = Bothrian
		plural = Bothrians
		home_planet = Bothria
		home_system = "Bothmaras"
		name_list = "MAM1"
	}

	dorbolan = {
		name = Dorbolan
		plural = Dorbolans
		home_planet = Dorbol
		home_system = Dimas-Qul
		name_list = "MAM2"
	}

	fevarian = {
		name = Fevarian
		plural = Fevarians
		home_planet = Fevaria
		home_system = Fevnor
		name_list = "MAM3"
	}

	kenjodan = {
		name = Kenjodan
		plural = Kenjodani
		home_planet = "Kenjor Prime"
		home_system = Kenjor
		name_list = "MAM4"
	}

	glyrran = {
		name = Glyrran
		plural = Glyrrans
		home_planet = Glyrra
		home_system = Glyrr
		name_list = "MAM1"
	}
	
	pallyrian = {
		name = Pallyrian
		plural = Pallyrians
		home_planet = Pallyria
		home_system = Detnura
		name_list = "MAM2"
	}
	
	quvarian = {
		name = Quvarian
		plural = Quvarians
		home_planet = Quntos
		home_system = "Qara Binam"
		name_list = "MAM3"
	}
	
	qellnuram = {
		name = Qell'Nudar
		plural = Qell'Nudar
		home_planet = Qell
		home_system = "Hir'Qelli"
		name_list = "MAM4"
	}
	
	valdari = {
		name = Valdari
		plural = Valdari
		home_planet = Vak-Nosha
		home_system = Val'Sho
		name_list = "MAM1"
	}
	
	igarian = {
		name = Igarian
		plural = Igarians
		home_planet = Igaria
		home_system = Igra
		name_list = "MAM2"
	}
	
	adnoran = {
		name = Adnoran
		plural = Adnorans
		home_planet = Adnor
		home_system = Adanir
		name_list = "MAM3"
	}
	
	tjell = {
		name = T'Jell
		plural = T'Jell
		home_planet = "Hiris'Mo"
		home_system = Takan'Ja
		name_list = "MAM4"
	}
	
	tarassi = {
		name = Tarassi
		plural = Tarassi
		home_planet = Tarraska
		home_system = Rolder
		name_list = "MAM1"
	}

	sinrath = {
		name = Sinrath
		plural = Sinrathi
		home_planet = Sinja-Buv
		home_system = Sinrak
		name_list = "MAM2"
	}

	kaan_visam = {
		name = Kaan-Visam
		plural = Kaan-Visami
		home_planet = Kaan
		home_system = Zrunn
		name_list = "MAM3"
	}

	tebazoid = {
		name = Tebazoid
		plural = Tebazoids
		home_planet = Tebazed
		home_system = Tebza
		name_list = "MAM4"
	}

	kazam = {
		name = Kazam
		plural = Kazams
		home_planet = Kazzakar
		home_system = Kaz
		name_list = "MAM1"
	}

	quvab = {
		name = Qu'Vab
		plural = Qu'Vabs
		home_planet = Qa'V
		home_system = V'Qi
		name_list = "MAM2"
	}
}


### FUNGOID

FUN = {
	bhennthell = {
		name = Bhenn'Thell
		plural = Bhenn'Thellians
		home_planet = Thell
		home_system = Thar'Biq
		name_list = "FUN1"
	}

	tendrazuhn = {
		name = Tendra-Zuhn
		plural = Tendra-Zuhns
		home_planet = Zuhn
		home_system = Tarim-Zal
		name_list = "FUN2"
	}
	
	hahnmur = {
		name = Hahn-Mur
		plural = Hahn-Murians
		home_planet = Hahn-Muria
		home_system = Mura
		name_list = "FUN3"
	}
	
	menjeti = {
		name = Menjeti
		plural = Menjeti
		home_planet = Menjus
		home_system = Menjusana
		name_list = "FUN4"
	}

	hissma = {
		name = Hissma
		plural = Hissma
		home_planet = Hissom
		home_system = Hissitar
		name_list = "FUN1"
	}

	tycan = {
		name = Tycan
		plural = Tycans
		home_planet = "Tycor Prime"
		home_system = Tycor
		name_list = "FUN2"
	}
	
	canthari = {
		name = Canthari
		plural = Canthari
		home_planet = "Canthar Shuk"
		home_system = Cantho
		name_list = "FUN3"
	}
	
	otaga = {
		name = Otaga
		plural = Otagans
		home_planet = Otigur
		home_system = Otara
		name_list = "FUN4"
	}
	
	zracon = {
		name = Zracon
		plural = Zracons
		home_planet = Zragg
		home_system = Zramas
		name_list = "FUN1"
	}
	
	thembolon = {
		name = Thembolon
		plural = Thembolons
		home_planet = Thembolia
		home_system = Thembor
		name_list = "FUN2"
	}
	
	jhoolian = {
		name = Jhoolian
		plural = Jhoolians
		home_planet = "Jhool Prime"
		home_system = Jhool
		name_list = "FUN3"
	}
	
	djunn = {
		name = Djunn
		plural = Djunni
		home_planet = Djunnbar
		home_system = Djunnir
		name_list = "FUN4"
	}
	
	hulfir = {
		name = Hulfir
		plural = Hulfiri
		home_planet = "Hulfassa"
		home_system = "Hulfass Khor"
		name_list = "FUN1"
	}
	
	ultur = {
		name = Ul-Tur
		plural = Ul-Tur
		home_planet = Tu'Riab
		home_system = Ra-Mur
		name_list = "FUN2"
	}
	
	tyrathian = {
		name = Tyrathian
		plural = Tyrathians
		home_planet = Tyrath
		home_system = Tyrathurus
		name_list = "FUN3"
	}
	
	kithri = {
		name = Kithri
		plural = Kithri
		home_planet = Kithur
		home_system = Kith'Valas
		name_list = "FUN4"
	}
	
	jibru = {
		name = Jibru
		plural = Jibru
		home_planet = Jibbasa
		home_system = Jib
		name_list = "FUN1"
	}
	
	hazar = {
		name = Hazar
		plural = Hazari
		home_planet = Hazaria
		home_system = Hazi
		name_list = "FUN2"
	}

	kar-du = {
		name = Kar-Du
		plural = Kar-Du
		home_planet = Kar-Nu
		home_system = Kar-Zu
		name_list = "FUN3"
	}
	
	uriy = {
		name = Uriy
		plural = Uriyi
		home_planet = Uraya
		home_system = Uri'dath
		name_list = "FUN4"
	}
	
	gorf = {
		name = Gorf
		plural = Gorf
		home_planet = "Great Gorf"
		home_system = Gorfis
		name_list = "FUN1"
	}
	
	zik-mok = {
		name = Zik-Mok
		plural = Zik-Moks
		home_planet = Mok
		home_system = Makkar
		name_list = "FUN2"
	}
	
	neborite = {
		name = Neborite
		plural = Neborites
		home_planet = Neboria
		home_system = Neborithar
		name_list = "FUN3"
	}
	
	syldaean = {
		name = Syldaean
		plural = Syldaeans
		home_planet = "Sylda Prime"
		home_system = Syldus
		name_list = "FUN4"
	}
	
	meshben = {
		name = Mesh'Ben
		plural = Mesh'Bens
		home_planet = Mesh'Bennur
		home_system = Meshka
		name_list = "FUN1"
	}

	bothrazoid = {
		name = Bothrazoid
		plural = Bothrazoids
		home_planet = Bothrazed
		home_system = Bothra
		name_list = "FUN2"
	}

	makaru = {
		name = Makaru
		plural = Makaru
		home_planet = Makaria
		home_system = Nik-Raal
		name_list = "FUN3"
	}

	sojagg = {
		name = Sojagg
		plural = Sojaggs
		home_planet = "Sogg Prime"
		home_system = Sogg
		name_list = "FUN4"
	}

	vatnaka = {
		name = Vat'na-Ka
		plural = Vat'na-Ka
		home_planet = "Great Vatni"
		home_system = Kramak
		name_list = "FUN1"
	}

	ishni = {
		name = Ishni
		plural = Ishni
		home_planet = Ish
		home_system = "Ish'Tari"
		name_list = "FUN2"
	}
}

### ARTHROPOID

ART = {
	themlar = {
		name = Themlar
		plural = Themlari
		home_planet = Them
		home_system = Themmel
		name_list = "ART1"
	}

	tezhnid = {
		name = Tezhnid
		plural = Tezhnids
		home_planet = Tezhnar
		home_system = Tizhnig
		name_list = "ART2"
	}
	
	pithok = {
		name = Pithok
		plural = Pithoks
		home_planet = Thokkia
		home_system = Pithora
		name_list = "ART3"
	}

	cithin = {
		name = Cithin
		plural = Cithini
		home_planet = Cithlar
		home_system = "Cithbon Qa"
		name_list = "ART4"
	}

	thimoid = {
		name = Thimoid
		plural = Thimoids
		home_planet = Thimodurus
		home_system = Thimagga
		name_list = "ART1"
	}

	rutharian = {
		name = Rutharian
		plural = Rutharians
		home_planet = Rutharia
		home_system = Ruthor
		name_list = "ART2"
	}

	jhabbanid = {
		name = Jhabbanid
		plural = Jhabbanids
		home_planet = Jhabban
		home_system = "Jhab Simor"
		name_list = "ART3"
	}

	saathid = {
		name = Saathid
		plural = Saathids
		home_planet = Saathurna
		home_system = Saathar
		name_list = "ART4"
	}

	iknurval = {
		name = Ik-Nur-Val
		plural = Ik-Nur-Vals
		home_planet = Ik
		home_system = Ir-Vol-Ta
		name_list = "ART1"
	}
	
	haddam = {
		name = Haddam
		plural = Haddam
		home_planet = "Haddi Saras"
		home_system = Haddorim
		name_list = "ART2"
	}
	
	xeltek = {
		name = Xeltek
		plural = Xeltek
		home_planet = "Xel Mirus"
		home_system = Xeltor
		name_list = "ART3"
	}

	zithorian = {
		name = Zithorian
		plural = Zithorians
		home_planet = Zithoria
		home_system = Zithras
		name_list = "ART4"
	}
	
	hantak = {
		name = Hantak
		plural = Hantak
		home_planet = Hantakka
		home_system = Takaros
		name_list = "ART1"
	}
	
	rontor = {
		name = Rontor
		plural = Rontori
		home_planet = "Rontus Prime"
		home_system = Rontus
		name_list = "ART2"
	}
	
	talakkur = {
		name = Tal'Akkur
		plural = Tal'Akkuran
		home_planet = Tal'Desim
		home_system = Akkur
		name_list = "ART3"
	}
	
	myrran = {
		name = Myrran
		plural = Myrrans
		home_planet = Myrria
		home_system = Myrrak
		name_list = "ART4"
	}
	
	athallid = {
		name = Athallid
		plural = Athallids
		home_planet = "Athull Jor"
		home_system = Athull
		name_list = "ART1"
	}
	
	entheri = {
		name = Entheri
		plural = Entheri
		home_planet = Enth
		home_system = "Na Ethor"
		name_list = "ART2"
	}
	
	chimm = {
		name = Chimm
		plural = Chimm
		home_planet = Chimnar
		home_system = Chiril
		name_list = "ART3"
	}
	
	shabtak = {
		name = Shabtak
		plural = Shabtaks
		home_planet = Shabtor
		home_system = Shabturiss
		name_list = "ART4"
	}
	
	yibrak = {
		name = Yibrak
		plural = Yibraki
		home_planet = "Yibar Prime"
		home_system = Yibar
		name_list = "ART1"
	}
	
	qiramulan = {
		name = Qiramulan
		plural = Qiramulan
		home_planet = "Greater Qirus"
		home_system = Qirus
		name_list = "ART2"
	}
	
	ethir = {
		name = Ethir
		plural = Ethiri
		home_planet = Elbenthar
		home_system = Enith'Tas
		name_list = "ART3"
	}
	
	avtyrran = {
		name = Avtyrran
		plural = Avtyrrans
		home_planet = "Avtyrria Prime"
		home_system = Avtyrria
		name_list = "ART4"
	}
	
	pirak = {
		name = Pirak
		plural = Piraks
		home_planet = Pirokko
		home_system = Pirazur
		name_list = "ART1"
	}

	izki = {
		name = Izki
		plural = Izki
		home_planet = "Izk Center"
		home_system = Izk
		name_list = "ART2"
	}

	pakari = {
		name = Pakari
		plural = Pakari
		home_planet = Pak
		home_system = Gallim
		name_list = "ART3"
	}

	wi-ziraki = {
		name = Wi-Ziraki
		plural = Wi-Ziraki
		home_planet = Winnig
		home_system = Wethir
		name_list = "ART4"
	}

	maggar = {
		name = Maggar
		plural = Maggars
		home_planet = Magga
		home_system = Maggur
		name_list = "ART1"
	}

	krithakkan = {
		name = Krithakkan
		plural = Krithakkans
		home_planet = Krith
		home_system = Karka
		name_list = "ART2"
	}
}

### REPTILIAN

REP = {
	rethellian = {
		name = Rethellian
		plural = Rethellians
		home_planet = Rethellia
		home_system = Rethell
		name_list = "REP1"
	}
	
	kammarian = {
		name = Kammarian
		plural = Kammarians
		home_planet = Kamdor
		home_system = Kamdakkor
		name_list = "REP2"
	}
	
	anathurian = {
		name = Anathurian
		plural = Anathurians
		home_planet = Anathuria
		home_system = Anathor
		name_list = "REP3"
	}

	zuifvan = {
		name = Zuifvan
		plural = Zuifvans
		home_planet = Zuif
		home_system = Zuffur
		name_list = "REP4"
	}
	
	reshethi = {
		name = Reshethi
		plural = Reshethi
		home_planet = Resh
		home_system = Reshlur
		name_list = "REP1"
	}

	dethakkan = {
		name = Dethakkan
		plural = Dethakkans
		home_planet = Dethak
		home_system = Dethlar
		name_list = "REP2"
	}

	ikarzuri = {
		name = Ikarzuri
		plural = Ikarzuri
		home_planet = Ikara
		home_system = Karzu
		name_list = "REP3"
	}

	vhemm = {
		name = Vhemm
		plural = Vhemmians
		home_planet = Vhemm
		home_system = Vhemmbor
		name_list = "REP4"
	}
	
	tendrakkian = {
		name = Tendrakkian
		plural = Trendrakkians
		home_planet = Tendrakkia
		home_system = Tendor
		name_list = "REP1"
	}
	
	baanthurian = {
		name = Baanthurian
		plural = Baanthurians
		home_planet = Baanthur
		home_system = "Baanth Vir"
		name_list = "REP2"
	}
	
	cormathani = {
		name = Cormathani
		plural = Cormathani
		home_planet = Cormath
		home_system = Cormassa
		name_list = "REP3"
	}
	
	kirillian = {
		name = Kirillian
		plural = Kirillians
		home_planet = Kirill
		home_system = "Koltras Nadh"
		name_list = "REP4"
	}
	
	beldross = {
		name = Beldross
		plural = Beldross
		home_planet = Fenn'Halor
		home_system = Binor
		name_list = "REP1"
	}
	
	jurinn = {
		name = Jurinn
		plural = Jurinn
		home_planet = Jurandar
		home_system = "Jurik Than"
		name_list = "REP2"
	}
	
	ziiran = {
		name = Ziiran
		plural = Ziirans
		home_planet = Ne'Ziira
		home_system = Ziira
		name_list = "REP3"
	}
	
	athanebian = {
		name = Athanebian
		plural = Athanebians
		home_planet = Athanebia
		home_system = Athas
		name_list = "REP4"
	}
	
	diri = {
		name = Diri
		plural = Diri
		home_planet = Dir-Vanus
		home_system = Dir
		name_list = "REP1"
	}
	
	hydari = {
		name = Hydari
		plural = Hydari
		home_planet = Hydax
		home_system = Hydor
		name_list = "REP2"
	}
	
	cirrulan = {
		name = Cirrulan
		plural = Cirrulans
		home_planet = Cirra
		home_system = Cir'Darus
		name_list = "REP3"
	}
	
	yaanari = {
		name = Yaanari
		plural = Yaanari
		home_planet = Yaan
		home_system = Yaanus
		name_list = "REP4"
	}
	
	ubaric = {
		name = Ubaric
		plural = Ubarics
		home_planet = Ubaria
		home_system = Vuza'baru
		name_list = "REP1"
	}
	
	kedeshi = {
		name = Kedeshi
		plural = Kedeshi
		home_planet = Kesho
		home_system = "Kesh-Suras"
		name_list = "REP2"
	}
	
	tebadoran = {
		name = Tebadoran
		plural = Tebadorans
		home_planet = Tebador
		home_system = Tabat
		name_list = "REP3"
	}
	
	bessadon = {
		name = Bessadon
		plural = Bessadons
		home_planet = Bessqa
		home_system = Bess'Qoro
		name_list = "REP4"
	}
	
	lyrite = {
		name = Lyrite
		plural = Lyrites
		home_planet = Lyrass
		home_system = Karuss
		name_list = "REP1"
	}

	sathori = {
		name = Sathori
		plural = Sathori
		home_planet = Sathoria
		home_system = Sath
		name_list = "REP2"
	}

	suramo = {
		name = Suramo
		plural = Suramos
		home_planet = "Suramo Prime"
		home_system = Suramo
		name_list = "REP3"
	}

	knatza = {
		name = Knatza
		plural = Knatzi
		home_planet = Knatz
		home_system = Ibnatz
		name_list = "REP4"
	}

	bryll = {
		name = Bryll
		plural = Brylls
		home_planet = Bryllthana
		home_system = Brethlu
		name_list = "REP1"
	}

	raxar = {
		name = Raxar
		plural = Raxari
		home_planet = Rax'Kana
		home_system = Rax
		name_list = "REP2"
	}
}

### AVIAN 

AVI = {
	shantari = {
		name = Shantari
		plural = Shantari
		home_planet = "Shantar Prime"
		home_system = Shantar
		name_list = "AVI1"
	}
	
	saiiban = {
		name = Saiiban
		plural = Saiibani
		home_planet = Sabak
		home_system = Sairus
		name_list = "AVI2"
	}

	ikaanan = {
		name = Ikaanan
		plural = Ikaanans
		home_planet = Ikaan
		home_system = Ikor
		name_list = "AVI3"
	}

	avarrian = {
		name = Avarrian
		plural = Avarrians
		home_planet = "Avar Prime"
		home_system = Avar
		name_list = "AVI4"
	}

	khessam = {
		name = Khessam
		plural = Khessam
		home_planet = "Khessar Toralis"
		home_system = Khessar
		name_list = "AVI1"
	}
	
	cynn = {
		name = Cynn
		plural = Cynn
		home_planet = Cynndor
		home_system = Cythra
		name_list = "AVI2"
	}
	
	yeon = {
		name = Yeon
		plural = Yeoni
		home_planet = "Yeondus"
		home_system = "Yal Bask"
		name_list = "AVI3"
	}
	
	tezekian = {
		name = Tezekian
		plural = Tezekians
		home_planet = Tezek
		home_system = "Tir Batna"
		name_list = "AVI4"
	}
	
	khemplar = {
		name = Khemplar
		plural = Khemplari
		home_planet = Khemsala
		home_system = "Khem Jhunn"
		name_list = "AVI1"
	}
	
	vissari = {
		name = Vissari
		plural = Vissari
		home_planet = Viss
		home_system = Visslok
		name_list = "AVI2"
	}

	rackuddon = {
		name = Rackuddon
		plural = Rackuddons
		home_planet = Rackuur
		home_system = Rackta
		name_list = "AVI3"
	}
	
	tiyal = {
		name = Tiyal
		plural = Tiyali
		home_planet = Yenon
		home_system = Yihim
		name_list = "AVI4"
	}
	
	keerim = {
		name = Keerim
		plural = Keerimian
		home_planet = Kershi
		home_system = Kirim
		name_list = "AVI1"
	}
	
	fiiral = {
		name = Fiiral
		plural = Fiirali
		home_planet = "Fiiris Prime"
		home_system = Fiiris
		name_list = "AVI2"
	}
	
	cynur = {
		name = Cynur
		plural = Cynur
		home_planet = "Cyris Prime"
		home_system = Cyris
		name_list = "AVI3"
	}
	
	imari = {
		name = Imari
		plural = Imari
		home_planet = Imaria
		home_system = Imur
		name_list = "AVI4"
	}
	
	izirian = {
		name = Izirian
		plural = Izirians
		home_planet = Izir
		home_system = Zirma
		name_list = "AVI1"
	}
	
	figyar = {
		name = Figyar
		plural = Figyari
		home_planet = "Yarus Prime"
		home_system = Yarus
		name_list = "AVI2"
	}
	
	sibulan = {
		name = Sibulan
		plural = Sibulans
		home_planet = "Old Sibula"
		home_system = Metrak
		name_list = "AVI3"
	}
	
	miidari = {
		name = Miidari
		plural = Miidari
		home_planet = Miidak
		home_system = M'Than
		name_list = "AVI4"
	}
	
	spyran = {
		name = Spyran
		plural = Spyrans
		home_planet = Spyria
		home_system = "Spyr K'tah"
		name_list = "AVI1"
	}
	
	bruggan = {
		name = Bruggan
		plural = Bruggans
		home_planet = Branagea
		home_system = Birgas
		name_list = "AVI2"
	}
	
	inari = {
		name = Inari
		plural = Inari
		home_planet = Inarus
		home_system = Inak
		name_list = "AVI3"
	}
	
	penthulan = {
		name = Penthulan
		plural = Penthulans
		home_planet = Penthul
		home_system = Penkar
		name_list = "AVI4"
	}
	
	rixi = {
		name = Rixi
		plural = Rixi
		home_planet = Rix
		home_system = Rixaru
		name_list = "AVI1"
	}

	baviir = {
		name = Baviir
		plural = Baviiri
		home_planet = Baviira
		home_system = "Bavi Tiri"
		name_list = "AVI2"
	}

	ospranian = {
		name = Ospranian
		plural = Ospranians
		home_planet = Osprania
		home_system = Ospra
		name_list = "AVI3"
	}

	erissu = {
		name = Erissu
		plural = Erissu
		home_planet = Emariss
		home_system = Marass
		name_list = "AVI4"
	}

	skanuri = {
		name = Skanuri
		plural = Skanuri
		home_planet = Skanaa
		home_system = Skeru
		name_list = "AVI1"
	}

	hiran = {
		name = Hiran
		plural = Hirans
		home_planet = Hir
		home_system = "Hir Alku'T"
		name_list = "AVI2"
	}
}

### MOLLUSCOID

MOL = {
	Aztani = {
		name = Aztani
		plural = Aztani
		home_planet = "Nira Aztan"
		home_system = Aztan
		name_list = "MOL1"
	}
	
	karabnar = {
		name = Karabnar
		plural = Karabnari
		home_planet = Karab
		home_system = Karabon
		name_list = "MOL2"
	}
	
	ymorz = {
		name = Ymorz
		plural = Ymorz
		home_planet = Ymoria
		home_system = "Ymor Za"
		name_list = "MOL3"
	}
	
	bilnoc = {
		name = Bilnoc
		plural = Bilnocs
		home_planet = Biris
		home_system = Bilnagga
		name_list = "MOL4"
	}
	
	larongo = {
		name = Larongo
		plural = Larongo
		home_planet = Larongia
		home_system = Rongo
		name_list = "MOL1"
	}
	
	uthonian = {
		name = Uthonian
		plural = Uthonians
		home_planet = Utholla
		home_system = Uthon
		name_list = "MOL2"
	}
	
	elaaminid = {
		name = Elaaminid
		plural = Elaaminids
		home_planet = Elaam
		home_system = "Ela Gaan"
		name_list = "MOL3"
	}
	
	heejam = {
		name = Heejam
		plural = Heejami
		home_planet = Heejor
		home_system = Hejiris
		name_list = "MOL4"
	}
	
	hannfelir = {
		name = Hann'Felir
		plural = Hann'Felir
		home_planet = Hurum
		home_system = Dagir'Fon
		name_list = "MOL1"
	}
	
	cyggan = {
		name = Cyggan
		plural = Cyggans
		home_planet = Cyggia
		home_system = Cyggdar
		name_list = "MOL2"
	}
	
	gorothi = {
		name = Gorothi
		plural = Gorothi
		home_planet = Goroth
		home_system = Gor
		name_list = "MOL3"
	}
	
	connisthian = {
		name = Connisthian
		plural = Connisthians
		home_planet = "Conn'Aramis"
		home_system = Connthor
		name_list = "MOL4"
	}
	
	nuurian = {
		name = Nuurian
		plural = Nuurians
		home_planet = Nuur
		home_system = "Nuur Diamok"
		name_list = "MOL1"
	}
	
	genoggian = {
		name = Genoggian
		plural = Genoggians
		home_planet = Genoggia
		home_system = Genox
		name_list = "MOL2"
	}
	
	dabulan = {
		name = Dabulan
		plural = Dabulans
		home_planet = Dabul
		home_system = "Demes Qhi"
		name_list = "MOL3"
	}
	
	uthabulan = {
		name = Uthabulan
		plural = Uthabulans
		home_planet = Uthab
		home_system = "Ithni Zerak"
		name_list = "MOL4"
	}
	
	gurite = {
		name = Gurite
		plural = Gurites
		home_planet = Gur
		home_system = Gur'Tim
		name_list = "MOL1"
	}
	
	hythean = {
		name = Hythean
		plural = Hytheans
		home_planet = Hythea
		home_system = Hythus
		name_list = "MOL2"
	}
	
	tebbran = {
		name = Tebbran
		plural = Tebbrans
		home_planet = Tebbor
		home_system = Tebbaris
		name_list = "MOL3"
	}
	
	kundaric = {
		name = Kundan
		plural = Kundans
		home_planet = Kundiya 
		home_system = Kunn-Ti
		name_list = "MOL4"
	}
	
	sejethari = {
		name = Sejethari
		plural = Sejethari
		home_planet = Sejeth
		home_system = Sejethanibus
		name_list = "MOL1"
	}
	
	bakurian = {
		name = Bakturian
		plural = Bakturians
		home_planet = Baktur
		home_system = Bak'Turim
		name_list = "MOL2"
	}
	
	sebannic = {
		name = Seban
		plural = Sebans
		home_planet = Sebannica
		home_system = Sebto-Ka
		name_list = "MOL3"
	}
	
	jakly = {
		name = Jakly
		plural = Jakly
		home_planet = Jakaro
		home_system = Jik
		name_list = "MOL4"
	}
	
	bavi = {
		name = Bavi
		plural = Bavi
		home_planet = Bav
		home_system = Biv
		name_list = "MOL1"
	}

	endurga = {
		name = Endurga
		plural = Endurgas
		home_planet = Durgassa
		home_system = Durg
		name_list = "MOL2"
	}

	xabir = {
		name = Xabir
		plural = Xabiri
		home_planet = "Xabir Prime"
		home_system = Xabir
		name_list = "MOL3"
	}

	jubaran = {
		name = Jubaran
		plural = Jubarans
		home_planet = Jubb
		home_system = Je'thra-Vaz
		name_list = "MOL4"
	}

	norani = {
		name = Norani
		plural = Norani
		home_planet = Norania
		home_system = Nath
		name_list = "MOL1"
	}

	urzo = {
		name = Urzo
		plural = Urzo
		home_planet = Urzoria
		home_system = "Urz Goba"
		name_list = "MOL2"
	}
}

### AI

AI = {
	ai = {
		name = AI
		plural = AI
		home_planet = "Grid x0y0z0"
		home_system = "UGrid x0y0z0"
		name_list = "AI"
	}
}