﻿# Generated species derive their names from here

### MAMMALIANS

HUM = {
	alari = {
		language = "l_simp_chinese"
		name = 阿拉里
		plural = 阿拉里
		home_planet = 阿拉里
		home_system = 阿拉尔
		name_list = "HUM2"
	}
	
	mireesh = {
		language = "l_simp_chinese"
		name = 迷利西
		plural = 迷利西
		home_planet = 米拉提
		home_system = "迷利西·马尔"
		name_list = "HUM2"
	}
	
	triech = {
		language = "l_simp_chinese"
		name = 催驰
		plural = 催驰
		home_planet = 催驰
		home_system = 雷奇欧
		name_list = "HUM1"
	}
	
	vrinn = {
		language = "l_simp_chinese"
		name = 维林
		plural = 维林
		home_planet = 维林
		home_system = 维林努斯
		name_list = "HUM1"
	}
	
	cevanti = {
		language = "l_simp_chinese"
		name = 赛凡特
		plural = 赛凡特
		home_planet = 奥洛斯
		home_system = 赛凡特 
		name_list = "HUM2"
	}
	
	mishar = {
		language = "l_simp_chinese"
		name = 米沙
		plural = 米沙
		home_planet = 米沙里
		home_system = 夏尔
		name_list = "HUM1"
	}
	
	fareen = {
		language = "l_simp_chinese"
		name = 法拉恩
		plural = 法拉恩
		home_planet = 法拉
		home_system = 埃纳托
		name_list = "HUM2"
	}
	
	yldar = {
		language = "l_simp_chinese"
		name = 伊尔达
		plural = 伊尔达
		home_planet = 伊尔达
		home_system = 伊安特
		name_list = "HUM2"
	}
	
	korinth = {
		language = "l_simp_chinese"
		name = 柯林斯
		plural = 柯林斯
		home_planet = 柯罗斯
		home_system = 柯林斯
		name_list = "HUM1"
	}
		
	sildor = {
		language = "l_simp_chinese"
		name = 希拉多
		plural = 希拉多
		home_planet = 希拉多利亚
		home_system = 希拉
		name_list = "HUM1"
	}
	nagyari = {
		language = "l_simp_chinese"
		name = 纳格亚利
		plural = 纳格亚利
		home_planet = 纳格亚利亚
		home_system = 纳格亚
		name_list = "HUM3"
	}

	kobarian = {
		language = "l_simp_chinese"
		name = 克伯利安
		plural = 克伯利安斯
		home_planet = 科巴利亚
		home_system = 克伯
		name_list = "HUM4"
	}

	Hesukar = {
		language = "l_simp_chinese"
		name = 海旭卡
		plural = 海旭卡人
		home_planet = "海旭主星"
		home_system = 海旭星系
		name_list = "HUM1"
	}

	giroid = {
		language = "l_simp_chinese"
		name = 吉尔罗德
		plural = 吉尔罗德人
		home_planet = 吉尔萨那星
		home_system = 吉尔星系
		name_list = "HUM2"
	}

	akkano = {
		language = "l_simp_chinese"
		name = 阿卡诺
		plural = 阿卡诺人
		home_planet = 阿卡纳星
		home_system = 阿卡星系
		name_list = "HUM3"
	}
}


MAM = {
	kroll = {
		language = "l_simp_chinese"
		name = 科洛
		plural = 科洛
		home_planet = "科洛达主星"
		home_system = 科洛达
		name_list = "MAM1"
	}

	orassian = {
		language = "l_simp_chinese"
		name = 奥拉斯安
		plural = 奥拉斯安
		home_planet = 奥拉西亚
		home_system = 奥拉斯
		name_list = "MAM2"
	}

	aramathi = {
		language = "l_simp_chinese"
		name = 阿拉玛西
		plural = 阿拉玛西
		home_planet = 阿拉吉姆
		home_system = 阿拉姆斯
		name_list = "MAM3"
	}
		
	immutharan = {
		language = "l_simp_chinese"
		name = 伊姆斯兰
		plural = 伊姆斯兰
		home_planet = 伊姆斯
		home_system = 伊姆索尔
		name_list = "MAM2"
	}

	hiffnar = {
		language = "l_simp_chinese"
		name = 希弗纳
		plural = 希弗纳
		home_planet = 希弗努斯
		home_system = 希弗
		name_list = "MAM1"
	}
	
	zaanami = {
		language = "l_simp_chinese"
		name = 扎纳玛尔
		plural = 扎纳玛尔
		home_planet = 扎纳玛尔
		home_system = 扎恩
		name_list = "MAM2"
	}

	estwani = {
		language = "l_simp_chinese"
		name = 埃斯特瓦尼
		plural = 埃斯特瓦尼
		home_planet = 埃斯特瓦纳
		home_system = 瓦尼
		name_list = "MAM3"
	}

	vailon = {
		language = "l_simp_chinese"
		name = 维利安
		plural = 维利安
		home_planet = 瓦尔加
		home_system = 维迪利恩
		name_list = "MAM1"
	}

	raltek = {
		language = "l_simp_chinese"
		name = 拉尔泰克
		plural = 拉尔泰克
		home_planet = "雷坦·布尔"
		home_system = 拉尔泰西
		name_list = "MAM2"
	}

	birnathi = {
		language = "l_simp_chinese"
		name = 比尔纳西
		plural = 比尔纳西
		home_planet = 比尔怒斯
		home_system = 德希鲁斯
		name_list = "MAM3"
	}

	othari = {
		language = "l_simp_chinese"
		name = 欧萨利
		plural = 欧萨利
		home_planet = 欧萨利亚
		home_system = 欧索尔
		name_list = "MAM1"
	}

	evandari = {
		language = "l_simp_chinese"
		name = 伊万达里
		plural = 伊万达里
		home_planet = "伊万达·祖恩"
		home_system = 伊凡
		name_list = "MAM2"
	}

	bothrian = {
		language = "l_simp_chinese"
		name = 波萨利安
		plural = 波萨利安
		home_planet = 波萨利亚
		home_system = "波萨马拉斯"
		name_list = "MAM1"
	}

	dorbolan = {
		language = "l_simp_chinese"
		name = 多尔波兰
		plural = 多尔波兰
		home_planet = 多尔波尔
		home_system = 迪马斯-奎尔
		name_list = "MAM2"
	}

	fevarian = {
		language = "l_simp_chinese"
		name = 非瓦利安
		plural = 非瓦利安
		home_planet = 非瓦利亚
		home_system = 费诺尔
		name_list = "MAM3"
	}

	kenjodan = {
		language = "l_simp_chinese"
		name = 肯约丹
		plural = 肯约丹
		home_planet = "肯约尔主星"
		home_system = 肯约尔
		name_list = "MAM3"
	}

	glyrran = {
		language = "l_simp_chinese"
		name = 格莱尔兰
		plural = 格莱尔兰
		home_planet = 格莱尔拉
		home_system = 格莱尔
		name_list = "MAM1"
	}
	
	pallyrian = {
		language = "l_simp_chinese"
		name = 帕雷利安
		plural = 帕雷利安
		home_planet = 帕雷利亚
		home_system = 德希努拉
		name_list = "MAM3"
	}
	
	quvarian = {
		language = "l_simp_chinese"
		name = 奎瓦利安
		plural = 奎瓦利安
		home_planet = 昆托斯
		home_system = "奎拉·比纳木"
		name_list = "MAM1"
	}
	
	qellnuram = {
		language = "l_simp_chinese"
		name = 魁尔纳达尔
		plural = 魁尔纳达尔
		home_planet = 魁尔
		home_system = "希尔奎利"
		name_list = "MAM2"
	}
	
	valdari = {
		language = "l_simp_chinese"
		name = 瓦尔达利
		plural = 瓦尔达利
		home_planet = 瓦克诺莎
		home_system = 瓦尔硕
		name_list = "MAM2"
	}
	
	igarian = {
		language = "l_simp_chinese"
		name = 伊加利恩
		plural = 伊加利恩
		home_planet = 伊加利亚
		home_system = 伊格拉
		name_list = "MAM3"
	}
	
	adnoran = {
		language = "l_simp_chinese"
		name = 艾德诺兰
		plural = 艾德诺兰
		home_planet = 艾德诺
		home_system = 阿丹尼尔
		name_list = "MAM3"
	}
	
	tjell = {
		language = "l_simp_chinese"
		name = 图尤尔
		plural = 图尤尔
		home_planet = "西里斯莫"
		home_system = 泰坎加
		name_list = "MAM1"
	}
	
	tarassi = {
		language = "l_simp_chinese"
		name = 塔拉斯
		plural = 塔拉斯
		home_planet = 塔拉斯克
		home_system = 罗德尔
		name_list = "MAM2"
	}

	sinrath = {
		language = "l_simp_chinese"
		name = 希纳斯
		plural = 希纳斯
		home_planet = 西加布乌
		home_system = 希拉克
		name_list = "MAM2"
	}

	kaan_visam = {
		language = "l_simp_chinese"
		name = 卡威萨姆
		plural = 卡威萨米
		home_planet = 卡
		home_system = 祖伦
		name_list = "MAM3"
	}

	tebazoid = {
		language = "l_simp_chinese"
		name = 提巴佐德
		plural = 提巴佐德斯
		home_planet = 提巴佐斯
		home_system = 提巴扎
		name_list = "MAM4"
	}

	kazam = {
		language = "l_simp_chinese"
		name = 卡札木
		plural = 卡扎木斯
		home_planet = 卡扎卡
		home_system = 卡兹
		name_list = "MAM1"
	}

	quvab = {
		language = "l_simp_chinese"
		name = 库瓦布
		plural = 库瓦布斯
		home_planet = 库瓦
		home_system = 瓦奇
		name_list = "MAM2"
	}
}

### FUNGOID

FUN = {
	bhennthell = {
		language = "l_simp_chinese"
		name = 本赛尔
		plural = 本赛尔
		home_planet = 赛尔
		home_system = 索尔比克
		name_list = "FUN1"
	}

	tendrazuhn = {
		language = "l_simp_chinese"
		name = 腾多拉-祖恩
		plural = 腾多拉-祖恩
		home_planet = 祖恩
		home_system = 塔里木-扎伊
		name_list = "FUN2"
	}
	
	hahnmur = {
		language = "l_simp_chinese"
		name = 汉穆尔亚
		plural = 汉穆尔亚
		home_planet = 汉穆尔亚
		home_system = 穆拉
		name_list = "FUN1"
	}
	
	menjeti = {
		language = "l_simp_chinese"
		name = 门杰提
		plural = 门杰提
		home_planet = 门杰斯
		home_system = 门杰斯纳
		name_list = "FUN2"
	}

	hissma = {
		language = "l_simp_chinese"
		name = 西斯玛
		plural = 西斯玛
		home_planet = 西索莫
		home_system = 西斯塔尔
		name_list = "FUN1"
	}

	tycan = {
		language = "l_simp_chinese"
		name = 泰卡恩
		plural = 泰卡恩
		home_planet = "泰科尔主星"
		home_system = 泰科尔
		name_list = "FUN2"
	}
	
	canthari = {
		language = "l_simp_chinese"
		name = 坎萨里
		plural = 坎萨里
		home_planet = "坎萨·舒克"
		home_system = 坎索
		name_list = "FUN1"
	}
	
	otaga = {
		language = "l_simp_chinese"
		name = 欧塔加
		plural = 欧塔加
		home_planet = 欧提古尔
		home_system = 欧塔拉
		name_list = "FUN2"
	}
	
	zracon = {
		language = "l_simp_chinese"
		name = 佐拉康
		plural = 佐拉康
		home_planet = 佐拉格
		home_system = 佐拉玛斯
		name_list = "FUN1"
	}
	
	thembolon = {
		language = "l_simp_chinese"
		name = 西姆波尔兰
		plural = 西姆波尔恩兰
		home_planet = 西姆波利亚
		home_system = 西姆波尔
		name_list = "FUN2"
	}
	
	jhoolian = {
		language = "l_simp_chinese"
		name = 约尔人
		plural = 约尔人
		home_planet = "约尔主星"
		home_system = 约尔
		name_list = "FUN1"
	}
	
	djunn = {
		language = "l_simp_chinese"
		name = 朱恩
		plural = 朱恩
		home_planet = 朱恩巴尔
		home_system = 朱恩尼尔
		name_list = "FUN2"
	}
	
	hulfir = {
		language = "l_simp_chinese"
		name = 胡法尔
		plural = 胡法尔
		home_planet = "胡法萨"
		home_system = "胡法斯·科尔"
		name_list = "FUN1"
	}
	
	ultur = {
		language = "l_simp_chinese"
		name = 乌尔图
		plural = 乌尔图
		home_planet = 图拉比
		home_system = 拉缪尔
		name_list = "FUN2"
	}
	
	tyrathian = {
		language = "l_simp_chinese"
		name = 泰拉斯恩
		plural = 泰拉斯恩
		home_planet = 泰拉斯
		home_system = 泰拉斯鲁
		name_list = "FUN1"
	}
	
	kithri = {
		language = "l_simp_chinese"
		name = 奇瑟瑞
		plural = 奇瑟瑞
		home_planet = 奇瑟尔
		home_system = 奇瑟瓦拉斯
		name_list = "FUN2"
	}
	
	jibru = {
		language = "l_simp_chinese"
		name = 吉布鲁
		plural = 吉布鲁
		home_planet = 吉布萨
		home_system = 吉布
		name_list = "FUN1"
	}
	
	hazar = {
		language = "l_simp_chinese"
		name = 哈扎
		plural = 哈扎
		home_planet = 哈扎力亚
		home_system = 哈慈
		name_list = "FUN2"
	}

	kar-du = {
		language = "l_simp_chinese"
		name = 卡尔杜
		plural = 卡尔杜
		home_planet = 卡尔努
		home_system = 卡尔祖
		name_list = "FUN1"
	}
	
	uriy = {
		language = "l_simp_chinese"
		name = 乌瑞伊
		plural = 乌瑞伊
		home_planet = 乌拉雅
		home_system = 乌瑞戴斯
		name_list = "FUN2"
	}
	
	gorf = {
		language = "l_simp_chinese"
		name = 戈尔夫
		plural = 戈尔夫
		home_planet = "宏伟戈尔夫"
		home_system = 戈尔夫
		name_list = "FUN1"
	}
	
	zik-mok = {
		language = "l_simp_chinese"
		name = 泽克默克
		plural = 泽克默克
		home_planet = 摩克
		home_system = 马卡尔
		name_list = "FUN2"
	}
	
	neborite = {
		language = "l_simp_chinese"
		name = 内博利特
		plural = 内博利特
		home_planet = 内博利亚
		home_system = 内博利萨尔
		name_list = "FUN1"
	}
	
	syldaean = {
		language = "l_simp_chinese"
		name = 赛尔达恩
		plural = 赛尔达恩
		home_planet = "赛尔达主星"
		home_system = 赛尔杜丝
		name_list = "FUN2"
	}
	
	meshben = {
		language = "l_simp_chinese"
		name = 梅什本
		plural = 梅什本
		home_planet = 梅什本纳
		home_system = 梅什卡
		name_list = "FUN1"
	}

	bothrazoid = {
		language = "l_simp_chinese"
		name = 博拉人
		plural = 博拉人
		home_planet = 博拉泽星
		home_system = 博拉星系
		name_list = "FUN2"
	}

	makaru = {
		language = "l_simp_chinese"
		name = 马卡鲁
		plural = 马卡鲁
		home_planet = 马卡里亚
		home_system = 尼科拉
		name_list = "FUN3"
	}

	sojagg = {
		language = "l_simp_chinese"
		name = 索佳格
		plural = 索佳格斯
		home_planet = "先锋索格"
		home_system = 索格
		name_list = "FUN4"
	}

	vatnaka = {
		language = "l_simp_chinese"
		name = 瓦特纳卡
		plural = 瓦特纳卡
		home_planet = "大瓦特尼"
		home_system = 卡拉马克
		name_list = "FUN1"
	}

	ishni = {
		language = "l_simp_chinese"
		name = 没关系
		plural = 没关系
		home_planet = 伊什
		home_system = "伊什'国家"
		name_list = "FUN2"
	}
}

### ARTHROPOID

ART = {
	themlar = {
		language = "l_simp_chinese"
		name = 瑟姆拉
		plural = 瑟姆拉
		home_planet = 西姆
		home_system = 瑟姆尔
		name_list = "ART1"
	}

	tezhnid = {
		language = "l_simp_chinese"
		name = 特索尼
		plural = 特索尼
		home_planet = 特索纳
		home_system = 提泽尼哥
		name_list = "ART2"
	}
	
	pithok = {
		language = "l_simp_chinese"
		name = 皮索科
		plural = 皮索科
		home_planet = 索契
		home_system = 皮索拉
		name_list = "ART1"
	}

	cithin = {
		language = "l_simp_chinese"
		name = 希斯辛
		plural = 希斯辛
		home_planet = 希斯辛拉尔
		home_system = "希斯普·恰"
		name_list = "ART2"
	}

	thimoid = {
		language = "l_simp_chinese"
		name = 西莫伊德
		plural = 西莫伊德
		home_planet = 西莫杜鲁斯
		home_system = 西玛伽
		name_list = "ART1"
	}

	rutharian = {
		language = "l_simp_chinese"
		name = 卢萨利安
		plural = 卢萨利安
		home_planet = 卢萨利亚
		home_system = 卢瑟尔
		name_list = "ART2"
	}

	jhabbanid = {
		language = "l_simp_chinese"
		name = 加布尼德
		plural = 加布尼德
		home_planet = 加布恩
		home_system = "加布·西摩尔"
		name_list = "ART1"
	}

	saathid = {
		language = "l_simp_chinese"
		name = 萨斯德
		plural = 萨斯德
		home_planet = 萨苏尔纳
		home_system = 萨索尔
		name_list = "ART2"
	}

	iknurval = {
		language = "l_simp_chinese"
		name = 伊克努瓦尔
		plural = 伊克努瓦尔
		home_planet = 伊克
		home_system = 伊尔沃塔
		name_list = "ART1"
	}
	
	haddam = {
		language = "l_simp_chinese"
		name = 哈达姆
		plural = 哈达姆
		home_planet = "伊克"
		home_system = 伊尔沃塔
		name_list = "ART2"
	}
	
	xeltek = {
		language = "l_simp_chinese"
		name = 赛尔泰克
		plural = 赛尔泰克
		home_planet = "赛尔·米卢斯"
		home_system = 赛尔托
		name_list = "ART1"
	}

	zithorian = {
		language = "l_simp_chinese"
		name = 泽索里安
		plural = 泽索里安
		home_planet = 泽索里亚
		home_system = 泽索尔
		name_list = "ART2"
	}
	
	hantak = {
		language = "l_simp_chinese"
		name = 汉塔克
		plural = 汉塔克
		home_planet = 汉塔卡
		home_system = 塔卡罗斯
		name_list = "ART1"
	}
	
	rontor = {
		language = "l_simp_chinese"
		name = 伦托尔
		plural = 伦托尔
		home_planet = "伦图斯主星"
		home_system = 伦图斯
		name_list = "ART2"
	}
	
	talakkur = {
		language = "l_simp_chinese"
		name = 塔尔阿酷尔
		plural = 塔尔阿酷尔
		home_planet = 塔尔德斯米
		home_system = 阿库尔
		name_list = "ART1"
	}
	
	myrran = {
		language = "l_simp_chinese"
		name = 玛兰
		plural = 玛兰
		home_planet = 玛利亚
		home_system = 玛拉克
		name_list = "ART2"
	}
	
	athallid = {
		language = "l_simp_chinese"
		name = 艾萨利德
		plural = 艾萨利德
		home_planet = "亚祖·约尔"
		home_system = 亚祖
		name_list = "ART1"
	}
	
	entheri = {
		language = "l_simp_chinese"
		name = 埃恩萨里
		plural = 埃恩萨里
		home_planet = 埃恩萨
		home_system = "纳·以瑟"
		name_list = "ART2"
	}
	
	chimm = {
		language = "l_simp_chinese"
		name = 奇姆
		plural = 奇姆
		home_planet = 奇姆纳
		home_system = 齐丽尔
		name_list = "ART1"
	}
	
	shabtak = {
		language = "l_simp_chinese"
		name = 沙布塔卡
		plural = 沙布塔卡
		home_planet = 沙布托尔
		home_system = 沙布托里斯
		name_list = "ART2"
	}
	
	yibrak = {
		language = "l_simp_chinese"
		name = 伊巴尔克
		plural = 伊巴尔克
		home_planet = "伊巴尔主星"
		home_system = 伊巴尔
		name_list = "ART1"
	}
	
	qiramulan = {
		language = "l_simp_chinese"
		name = 奇拉穆兰
		plural = 奇拉穆兰
		home_planet = "雄伟齐鲁斯"
		home_system = 齐鲁斯
		name_list = "ART2"
	}
	
	ethir = {
		language = "l_simp_chinese"
		name = 艾希尔
		plural = 艾希尔
		home_planet = 艾尔本萨
		home_system = 埃尼萨塔司
		name_list = "ART1"
	}
	
	avtyrran = {
		language = "l_simp_chinese"
		name = 阿维泰瑞恩
		plural = 阿维泰瑞恩
		home_planet = "阿维泰瑞亚主星"
		home_system = 阿维泰瑞亚
		name_list = "ART2"
	}
	
	pirak = {
		language = "l_simp_chinese"
		name = 皮拉克
		plural = 皮拉克
		home_planet = 皮洛克
		home_system = 皮拉祖尔
		name_list = "ART1"
	}

	izki = {
		language = "l_simp_chinese"
		name = 艾兹基
		plural = 艾兹基
		home_planet = "艾兹基中心"
		home_system = 伊扎克
		name_list = "ART2"
	}

	pakari = {
		language = "l_simp_chinese"
		name = 帕卡利
		plural = 帕卡利
		home_planet = 帕克
		home_system = 加里姆
		name_list = "ART3"
	}

	wi-ziraki = {
		language = "l_simp_chinese"
		name = 维兹拉克
		plural = 维兹拉克
		home_planet = 胜利
		home_system = 维瑟尔
		name_list = "ART4"
	}

	maggar = {
		language = "l_simp_chinese"
		name = 马格
		plural = 马格斯
		home_planet = 马咖
		home_system = 马格尔
		name_list = "ART1"
	}

	krithakkan = {
		language = "l_simp_chinese"
		name = 克斯萨坎
		plural = 克斯萨坎斯
		home_planet = 克斯
		home_system = 卡卡
		name_list = "ART2"
	}
}

### REPTILIAN

REP = {
	rethellian = {
		language = "l_simp_chinese"
		name = 雷塞利安
		plural = 雷塞利安
		home_planet = 雷塞利亚
		home_system = 雷塞尔
		name_list = "REP1"
	}
	
	kammarian = {
		language = "l_simp_chinese"
		name = 卡玛利安
		plural = 卡玛利安
		home_planet = 卡姆多尔
		home_system = 卡姆达科尔
		name_list = "REP2"
	}
	
	anathurian = {
		language = "l_simp_chinese"
		name = 阿纳托利安
		plural = 阿纳托利安
		home_planet = 阿纳托利
		home_system = 阿纳托尔
		name_list = "REP3"
	}

	zuifvan = {
		language = "l_simp_chinese"
		name = 祖伊芬
		plural = 祖伊芬
		home_planet = 祖伊弗
		home_system = 祖弗尔
		name_list = "REP1"
	}
	
	reshethi = {
		language = "l_simp_chinese"
		name = 锐什西
		plural = 锐什西
		home_planet = 锐什
		home_system = 锐什鲁
		name_list = "REP2"
	}

	dethakkan = {
		language = "l_simp_chinese"
		name = 德萨坎
		plural = 德萨坎
		home_planet = 德萨克
		home_system = 德希拉尔
		name_list = "REP3"
	}

	ikarzuri = {
		language = "l_simp_chinese"
		name = 伊卡祖里
		plural = 伊卡祖里
		home_planet = 伊卡拉
		home_system = 卡尔祖
		name_list = "REP1"
	}

	vhemm = {
		language = "l_simp_chinese"
		name = 维姆博尔
		plural = 维姆安
		home_planet = 维姆
		home_system = 维姆博尔
		name_list = "REP2"
	}
	
	tendrakkian = {
		language = "l_simp_chinese"
		name = 腾多拉奇恩
		plural = 特兰德拉金
		home_planet = 腾多拉奇
		home_system = 腾多尔
		name_list = "REP3"
	}
	
	baanthurian = {
		language = "l_simp_chinese"
		name = 班西利安
		plural = 班西利安
		home_planet = 班西尔
		home_system = "班西·威尔"
		name_list = "REP1"
	}
	
	cormathani = {
		language = "l_simp_chinese"
		name = 科尔麦西尼
		plural = 科尔麦西尼
		home_planet = 科尔麦西
		home_system = 康尼索尔
		name_list = "REP2"
	}
	
	kirillian = {
		language = "l_simp_chinese"
		name = 奇利尔安
		plural = 奇利尔安
		home_planet = 奇利尔
		home_system = "科特拉斯·纳德"
		name_list = "REP3"
	}
	
	beldross = {
		language = "l_simp_chinese"
		name = 贝尔多斯
		plural = 贝尔多斯
		home_planet = 芬哈洛尔
		home_system = 比诺尔
		name_list = "REP1"
	}
	
	jurinn = {
		language = "l_simp_chinese"
		name = 朱力恩
		plural = 朱力恩
		home_planet = 约兰达尔
		home_system = "朱力克·詹"
		name_list = "REP2"
	}
	
	ziiran = {
		language = "l_simp_chinese"
		name = 泽拉n
		plural = 泽兰
		home_planet = 内兹拉
		home_system = 泽拉
		name_list = "REP3"
	}
	
	athanebian = {
		language = "l_simp_chinese"
		name = 埃塞恩比安
		plural = 埃塞恩比安
		home_planet = 埃塞恩比亚
		home_system = 阿萨斯
		name_list = "REP1"
	}
	
	diri = {
		language = "l_simp_chinese"
		name = 德尔里
		plural = 德尔里
		home_planet = 德尔-瓦努斯
		home_system = 德尔
		name_list = "REP2"
	}
	
	hydari = {
		language = "l_simp_chinese"
		name = 海达里
		plural = 海达里
		home_planet = 海达克斯
		home_system = 海多尔
		name_list = "REP3"
	}
	
	cirrulan = {
		language = "l_simp_chinese"
		name = 希尔卢兰
		plural = 希尔卢兰
		home_planet = 希尔拉
		home_system = 希尔达鲁斯
		name_list = "REP1"
	}
	
	yaanari = {
		language = "l_simp_chinese"
		name = 雅安纳里
		plural = 雅安纳里
		home_planet = 雅安
		home_system = 雅安纳斯
		name_list = "REP2"
	}
	
	ubaric = {
		language = "l_simp_chinese"
		name = 乌巴利克
		plural = 乌巴利克
		home_planet = 乌巴利亚
		home_system = 维萨巴鲁
		name_list = "REP3"
	}
	
	kedeshi = {
		language = "l_simp_chinese"
		name = 柯代希
		plural = 柯代希
		home_planet = 科朔
		home_system = "凯士苏拉斯"
		name_list = "REP1"
	}
	
	tebadoran = {
		language = "l_simp_chinese"
		name = 特拔多兰
		plural = 特拔多兰
		home_planet = 特拔多尔
		home_system = 泰巴特
		name_list = "REP2"
	}
	
	bessadon = {
		language = "l_simp_chinese"
		name = 贝萨顿
		plural = 贝萨顿
		home_planet = 贝斯卡
		home_system = 贝斯扩罗
		name_list = "REP3"
	}
	
	lyrite = {
		language = "l_simp_chinese"
		name = 雷里特
		plural = 雷里特
		home_planet = 雷拉斯
		home_system = 卡鲁斯
		name_list = "REP1"
	}

	sathori = {
		language = "l_simp_chinese"
		name = 萨苏里
		plural = 萨苏里
		home_planet = 萨苏里
		home_system = 萨斯
		name_list = "REP2"
	}

	suramo = {
		language = "l_simp_chinese"
		name = 苏拉摩
		plural = 苏拉摩斯
		home_planet = "先锋苏拉摩"
		home_system = 苏拉摩
		name_list = "REP3"
	}

	knatza = {
		language = "l_simp_chinese"
		name = 卡纳扎
		plural = 卡拉兹
		home_planet = 卡纳兹
		home_system = 伊比纳兹
		name_list = "REP4"
	}

	bryll = {
		language = "l_simp_chinese"
		name = 贝里尔
		plural = 贝里尔人
		home_planet = 贝里尔塔娜星
		home_system = 贝里路星系
		name_list = "REP1"
	}

	raxar = {
		language = "l_simp_chinese"
		name = 拉戈萨
		plural = 拉戈萨尼
		home_planet = 拉戈卡纳
		home_system = 拉戈
		name_list = "REP2"
	}
}

### AVIAN 

AVI = {
	shantari = {
		language = "l_simp_chinese"
		name = 山塔尔
		plural = 山塔尔
		home_planet = "山塔尔主星"
		home_system = 山塔尔
		name_list = "AVI1"
	}
	
	saiiban = {
		language = "l_simp_chinese"
		name = 赛班
		plural = 赛班
		home_planet = 萨巴克
		home_system = 赛鲁斯
		name_list = "AVI2"
	}

	ikaanan = {
		language = "l_simp_chinese"
		name = 伊克南
		plural = 伊克南
		home_planet = 伊克恩
		home_system = 伊克尔
		name_list = "AVI3"
	}

	avarrian = {
		language = "l_simp_chinese"
		name = 阿瓦利安
		plural = 阿瓦利安
		home_planet = "阿瓦尔主星"
		home_system = 阿瓦尔
		name_list = "AVI1"
	}

	khessam = {
		language = "l_simp_chinese"
		name = 克萨姆
		plural = 克萨姆
		home_planet = "凯撒·托拉里斯"
		home_system = 凯撒
		name_list = "AVI2"
	}
	
	cynn = {
		language = "l_simp_chinese"
		name = 塞恩
		plural = 塞恩
		home_planet = 塞恩多尔
		home_system = 克瑞斯拉
		name_list = "AVI3"
	}
	
	yeon = {
		language = "l_simp_chinese"
		name = 伊恩
		plural = 伊恩
		home_planet = "尤恩度斯"
		home_system = "耶尔·巴斯克"
		name_list = "AVI1"
	}
	
	tezekian = {
		language = "l_simp_chinese"
		name = 特泽克恩
		plural = 特泽克恩
		home_planet = 特泽克
		home_system = "提尔·巴塔纳"
		name_list = "AVI2"
	}
	
	khemplar = {
		language = "l_simp_chinese"
		name = 科姆普拉尔
		plural = 科姆普拉尔
		home_planet = 科姆萨拉
		home_system = "科姆·朱恩"
		name_list = "AVI3"
	}
	
	vissari = {
		language = "l_simp_chinese"
		name = 维萨里
		plural = 维萨里
		home_planet = 维斯
		home_system = 维斯洛克
		name_list = "AVI1"
	}

	rackuddon = {
		language = "l_simp_chinese"
		name = 拉库顿
		plural = 拉库顿
		home_planet = 拉库尔
		home_system = 拉科塔
		name_list = "AVI2"
	}
	
	tiyal = {
		language = "l_simp_chinese"
		name = 提雅尔
		plural = 提雅尔
		home_planet = 伊欧恩
		home_system = 伊利姆
		name_list = "AVI3"
	}
	
	keerim = {
		language = "l_simp_chinese"
		name = 科利姆
		plural = 科利姆
		home_planet = 科尔西
		home_system = 奇利姆
		name_list = "AVI1"
	}
	
	fiiral = {
		language = "l_simp_chinese"
		name = 西拉尔
		plural = 西拉尔
		home_planet = "西里斯主星"
		home_system = 西里斯
		name_list = "AVI2"
	}
	
	cynur = {
		language = "l_simp_chinese"
		name = 赛恩努尔
		plural = 赛恩努尔
		home_planet = "克瑞斯主星"
		home_system = 克瑞斯
		name_list = "AVI3"
	}
	
	imari = {
		language = "l_simp_chinese"
		name = 伊玛里
		plural = 伊玛里
		home_planet = 伊玛里a
		home_system = 伊姆尔
		name_list = "AVI1"
	}
	
	izirian = {
		language = "l_simp_chinese"
		name = 伊泽尔兰
		plural = 伊泽尔兰
		home_planet = 伊泽尔
		home_system = 泽尔玛
		name_list = "AVI2"
	}
	
	figyar = {
		language = "l_simp_chinese"
		name = 菲吉雅
		plural = 菲吉雅
		home_planet = "耶鲁斯主星"
		home_system = 耶鲁斯
		name_list = "AVI3"
	}
	
	sibulan = {
		language = "l_simp_chinese"
		name = 西布兰
		plural = 西布兰
		home_planet = "古西布拉"
		home_system = 美特拉克
		name_list = "AVI1"
	}
	
	miidari = {
		language = "l_simp_chinese"
		name = 米达里
		plural = 米达里
		home_planet = 米达克
		home_system = 米珊
		name_list = "AVI2"
	}
	
	spyran = {
		language = "l_simp_chinese"
		name = 斯派兰
		plural = 斯派兰
		home_planet = 斯派利亚
		home_system = "斯派尔·科塔"
		name_list = "AVI3"
	}
	
	bruggan = {
		language = "l_simp_chinese"
		name = 布鲁干
		plural = 布鲁干
		home_planet = 布拉纳加
		home_system = 比尔贾斯
		name_list = "AVI1"
	}
	
	inari = {
		language = "l_simp_chinese"
		name = 伊纳克
		plural = 伊纳克
		home_planet = 伊纳努斯
		home_system = 伊纳克
		name_list = "AVI2"
	}
	
	penthulan = {
		language = "l_simp_chinese"
		name = 佩恩斯兰
		plural = 佩恩斯兰
		home_planet = 佩恩斯鲁
		home_system = 佩恩卡
		name_list = "AVI3"
	}
	
	rixi = {
		language = "l_simp_chinese"
		name = 雷克斯
		plural = 雷克斯
		home_planet = 雷克斯
		home_system = 雷克萨鲁
		name_list = "AVI1"
	}

	baviir = {
		language = "l_simp_chinese"
		name = 巴维尔
		plural = 巴维尔人
		home_planet = 巴维尔拉星
		home_system = "巴维提里星系"
		name_list = "AVI2"
	}

	ospranian = {
		language = "l_simp_chinese"
		name = 奥斯普瑞恩
		plural = 奥斯普瑞恩斯
		home_planet = 奥斯普尼亚
		home_system = 奥斯帕
		name_list = "AVI3"
	}

	erissu = {
		language = "l_simp_chinese"
		name = 埃里苏
		plural = 埃里苏
		home_planet = 埃马里斯
		home_system = 马拉斯
		name_list = "AVI4"
	}

	skanuri = {
		language = "l_simp_chinese"
		name = 西卡利
		plural = 西卡利
		home_planet = 萨卡纳
		home_system = 斯克鲁
		name_list = "AVI1"
	}

	hiran = {
		language = "l_simp_chinese"
		name = 西岚
		plural = 西岚人
		home_planet = 西尔星
		home_system = "西尔奥库星系"
		name_list = "AVI2"
	}
}

### MOLLUSCOID

MOL = {
	Aztani = {
		language = "l_simp_chinese"
		name = 阿兹坦尼
		plural = 阿兹坦尼
		home_planet = "尼拉·阿兹坦"
		home_system = 阿兹坦
		name_list = "MOL1"
	}
	
	karabnar = {
		language = "l_simp_chinese"
		name = 卡拉布纳
		plural = 卡拉布纳
		home_planet = 卡拉布
		home_system = 卡拉布恩
		name_list = "MOL2"
	}
	
	ymorz = {
		language = "l_simp_chinese"
		name = 伊莫尔兹
		plural = 伊莫尔兹
		home_planet = 伊莫尔亚
		home_system = "伊莫尔·扎"
		name_list = "MOL1"
	}
	
	bilnoc = {
		language = "l_simp_chinese"
		name = 比尔诺克
		plural = 比尔诺克
		home_planet = 比利斯
		home_system = 比尔那加
		name_list = "MOL2"
	}
	
	larongo = {
		language = "l_simp_chinese"
		name = 拉伦哥
		plural = 拉伦哥
		home_planet = 拉伦吉亚
		home_system = 伦哥
		name_list = "MOL1"
	}
	
	uthonian = {
		language = "l_simp_chinese"
		name = 乌索尼安
		plural = 乌索尼安
		home_planet = 乌索拉
		home_system = 乌索恩
		name_list = "MOL2"
	}
	
	elaaminid = {
		language = "l_simp_chinese"
		name = 艾拉米尼德
		plural = 艾拉米尼德
		home_planet = 艾拉姆
		home_system = "艾拉·岗"
		name_list = "MOL1"
	}
	
	heejam = {
		language = "l_simp_chinese"
		name = 黑甲姆
		plural = 黑甲姆
		home_planet = 黑约尔
		home_system = 黑吉利斯
		name_list = "MOL2"
	}
	
	hannfelir = {
		language = "l_simp_chinese"
		name = 汉菲力尔
		plural = 汉菲力尔
		home_planet = 哈鲁姆
		home_system = 代吉尔风
		name_list = "MOL1"
	}
	
	cyggan = {
		language = "l_simp_chinese"
		name = 赛甘
		plural = 赛甘
		home_planet = 赛格雅
		home_system = 赛格达
		name_list = "MOL2"
	}
	
	gorothi = {
		language = "l_simp_chinese"
		name = 格罗斯
		plural = 格罗斯
		home_planet = 格罗斯
		home_system = 戈尔
		name_list = "MOL1"
	}
	
	connisthian = {
		language = "l_simp_chinese"
		name = 康尼西恩
		plural = 康尼西恩
		home_planet = "康雅拉米斯"
		home_system = 康尼西恩
		name_list = "MOL2"
	}
	
	nuurian = {
		language = "l_simp_chinese"
		name = 努尔兰
		plural = 努尔兰
		home_planet = 努尔
		home_system = "努尔·迪亚莫克"
		name_list = "MOL1"
	}
	
	genoggian = {
		language = "l_simp_chinese"
		name = 杰诺吉亚恩
		plural = 杰诺吉亚恩
		home_planet = 杰诺吉亚
		home_system = 杰诺克斯
		name_list = "MOL2"
	}
	
	dabulan = {
		language = "l_simp_chinese"
		name = 代布兰
		plural = 代布兰
		home_planet = 代布尔
		home_system = "迪米斯·奇"
		name_list = "MOL1"
	}
	
	uthabulan = {
		language = "l_simp_chinese"
		name = 乌萨布兰
		plural = 乌萨布兰
		home_planet = 乌萨布
		home_system = "伊斯尼·泽拉克"
		name_list = "MOL2"
	}
	
	gurite = {
		language = "l_simp_chinese"
		name = 古尔利特
		plural = 古尔利特
		home_planet = 古尔
		home_system = 古尔提姆
		name_list = "MOL1"
	}
	
	hythean = {
		language = "l_simp_chinese"
		name = 海希恩
		plural = 海希恩
		home_planet = 海希雅
		home_system = 海瑟斯
		name_list = "MOL2"
	}
	
	tebbran = {
		language = "l_simp_chinese"
		name = 特波兰
		plural = 特波兰
		home_planet = 特波尔
		home_system = 特拔里斯
		name_list = "MOL1"
	}
	
	kundaric = {
		language = "l_simp_chinese"
		name = 昆丹
		plural = 昆丹
		home_planet = 昆迪亚 
		home_system = 昆提
		name_list = "MOL2"
	}
	
	sejethari = {
		language = "l_simp_chinese"
		name = 瑟杰萨里
		plural = 瑟杰萨里
		home_planet = 瑟杰斯
		home_system = 瑟杰萨尼布斯
		name_list = "MOL1"
	}
	
	bakurian = {
		language = "l_simp_chinese"
		name = 巴克图里安
		plural = 巴克图里安
		home_planet = 巴克图尔
		home_system = 巴克图利姆
		name_list = "MOL2"
	}
	
	sebannic = {
		language = "l_simp_chinese"
		name = 瑟班
		plural = 瑟班
		home_planet = 瑟班尼卡
		home_system = 瑟博托卡
		name_list = "MOL1"
	}
	
	jakly = {
		language = "l_simp_chinese"
		name = 贾克雷
		plural = 贾克雷
		home_planet = 贾卡洛
		home_system = 吉科
		name_list = "MOL2"
	}
	
	bavi = {
		language = "l_simp_chinese"
		name = 巴维
		plural = 巴维
		home_planet = 巴福
		home_system = 比维
		name_list = "MOL1"
	}

	endurga = {
		language = "l_simp_chinese"
		name = 恩多人
		plural = 恩多人
		home_planet = 多加撒星
		home_system = 多加星系
		name_list = "MOL2"
	}

	xabir = {
		language = "l_simp_chinese"
		name = 贾比亚
		plural = 贾比亚
		home_planet = "先锋贾比亚"
		home_system = 贾比亚
		name_list = "MOL3"
	}

	jubaran = {
		language = "l_simp_chinese"
		name = 容布朗
		plural = 容布朗
		home_planet = 容布
		home_system = 杰拉瓦兹
		name_list = "MOL4"
	}

	norani = {
		language = "l_simp_chinese"
		name = 纳拉尼
		plural = 纳拉尼
		home_planet = 纳拉尼亚
		home_system = 纳斯
		name_list = "MOL1"
	}

	urzo = {
		language = "l_simp_chinese"
		name = 厄佐
		plural = 厄佐
		home_planet = 厄佐利亚
		home_system = "伍兹戈巴"
		name_list = "MOL2"
	}
}

### AI

AI = {
	ai = {
		language = "l_simp_chinese"
		name = 人工智能
		plural = 人工智能
		home_planet = "格点 x0y0z0"
		home_system = "U格点x0y0z0 x0y0z0"
		name_list = "人工智能"
	}
}