###################
# Primitive Jobs
###################

fe_overseer = {
	category = precursor
	is_capped_by_modifier = yes
	clothes_texture_index = 1
	icon = administrator
	building_icon = building_palace
		
	possible_pre_triggers = {
		has_owner = yes
	}

	possible = {
		owner = { is_fallen_empire = yes }
		is_same_species = owner
	}
	
	planet_modifier = {
		planet_amenities_add = 10
		planet_stability_add = 5
	}
	
	weight = {
		weight = 30000

		# crisis purge
		modifier = {
			factor = 0.01
			planet.controller = {
				OR = {
					is_country_type = swarm
					is_country_type = ai_empire
				}
			}
		}
	}
}

fe_sky_cardinal = {
	category = precursor
	is_capped_by_modifier = yes
	clothes_texture_index = 1
	icon = high_priest
	building_icon = building_palace
		
	possible_pre_triggers = {
		has_owner = yes
	}

	possible = {
		owner = { is_fallen_empire_spiritualist = yes }
		is_same_species = owner
	}
	
	planet_modifier = {
		planet_amenities_add = 10
		planet_stability_add = 5
	}
	
	weight = {
		weight = 30000

		# crisis purge
		modifier = {
			factor = 0.01
			planet.controller = {
				OR = {
					is_country_type = swarm
					is_country_type = ai_empire
				}
			}
		}
	}
}


fe_guardian_bot = {
	category = precursor
	is_capped_by_modifier = yes
	building_icon = building_maintenance_depot
	clothes_texture_index = 2
	icon = soldier

	possible_pre_triggers = {
		has_owner = yes
	}

	possible = {
		owner = { is_fallen_machine_empire = yes }
		OR = {
			has_trait = trait_mechanical
			has_trait = trait_machine_unit
		}
	}
	
	planet_modifier = {
		planet_crime_add = -25
	}
	
	pop_modifier = {
		pop_defense_armies_add = 3
	}
	
	
	weight = {
		weight = 30000

		# crisis purge
		modifier = {
			factor = 0.01
			planet.controller = {
				OR = {
					is_country_type = swarm
					is_country_type = ai_empire
				}
			}
		}
	}
}

fe_protector = {
	category = precursor
	icon = enforcer
	building_icon = building_fortress
	clothes_texture_index = 2

	possible_pre_triggers = {
		has_owner = yes
	}

	possible = {
		owner = { is_fallen_empire = yes }
		is_same_species = owner
	}
	
	resources = {
	}

	planet_modifier = {
		planet_crime_add = -25
	}
	
	pop_modifier = {
		pop_defense_armies_add = 3
	}
	
	weight = {
		weight = 30000

		# crisis purge
		modifier = {
			factor = 0.01
			planet.controller = {
				OR = {
					is_country_type = swarm
					is_country_type = ai_empire
				}
			}
		}
	}
}

fe_archivist = {
	category = precursor
	is_capped_by_modifier = yes
	building_icon = building_master_archive
	clothes_texture_index = 2
		
	possible_pre_triggers = {
		has_owner = yes
	}

	possible = {
		owner = { 
			is_fallen_empire = yes
			has_country_flag = fallen_empire_1	
		}
		is_same_species = owner
	}
	
	resources = {
		category = planet_jobs
		produces = {
			society_research = 5
			physics_research = 5
			engineering_research = 5
		}
	}
	
	weight = {
		weight = 30000

		# crisis purge
		modifier = {
			factor = 0.01
			planet.controller = {
				OR = {
					is_country_type = swarm
					is_country_type = ai_empire
				}
			}
		}
	}
}

fe_acolyte_farm = {
	category = precursor
	building_icon = building_food_processing_facility
	clothes_texture_index = 3
	icon = farmer
	
	possible_pre_triggers = {
		has_owner = yes
	}

	possible = {
		owner = { is_fallen_empire_spiritualist = yes }
		is_same_species = owner
	}

	resources = {
		category = planet_farmers
		produces = {
			food = 8
		}
	}	
	
	weight = {
		weight = 15000

		# crisis purge
		modifier = {
			factor = 0.01
			planet.controller = {
				OR = {
					is_country_type = swarm
					is_country_type = ai_empire
				}
			}
		}
	}
}

fe_acolyte_mine = {
	category = precursor
	building_icon = building_crystal_mines
	clothes_texture_index = 3
	icon = miner

	possible_pre_triggers = {
		has_owner = yes
	}

	possible = {
		owner = { is_fallen_empire_spiritualist = yes }
		is_same_species = owner
	}

	resources = {
		category = planet_miners
		produces = {
			minerals = 6
		}
	}	
	
	weight = {
		weight = 15000

		# crisis purge
		modifier = {
			factor = 0.01
			planet.controller = {
				OR = {
					is_country_type = swarm
					is_country_type = ai_empire
				}
			}
		}
	}
}

fe_acolyte_generator = {
	category = precursor
	building_icon = building_power_plant
	clothes_texture_index = 3
	icon = technician
	
	possible_pre_triggers = {
		has_owner = yes
	}

	possible = {
		owner = { is_fallen_empire_spiritualist = yes }
		is_same_species = owner
	}

	resources = {
		category = planet_technician
		produces = {
			energy = 6
		}
	}	

	weight = {
		weight = 15000

		# crisis purge
		modifier = {
			factor = 0.01
			planet.controller = {
				OR = {
					is_country_type = swarm
					is_country_type = ai_empire
				}
			}
		}
	}
}

fe_augur = {
	category = precursor
	icon = priest
	is_capped_by_modifier = yes
	building_icon = building_citadel_of_faith
	clothes_texture_index = 2
		
	possible_pre_triggers = {
		has_owner = yes
	}

	possible = {
		owner = { is_fallen_empire_spiritualist = yes }
		is_same_species = owner
	}
	
	resources = {
		category = planet_jobs
		produces = {
			unity = 10
		}
	}
	
	weight = {
		weight = 30000

		# crisis purge
		modifier = {
			factor = 0.01
			planet.controller = {
				OR = {
					is_country_type = swarm
					is_country_type = ai_empire
				}
			}
		}
	}
}

fe_xeno_keeper = {
	category = precursor
	icon = culture_worker
	is_capped_by_modifier = yes
	building_icon = building_fe_xeno_zoo
	clothes_texture_index = 2
		
	possible_pre_triggers = {
		has_owner = yes
	}

	possible = {
		owner = { 	
			is_fallen_empire = yes
		}
		is_same_species = owner
	}
	
	planet_modifier = {
		planet_amenities_add = 10
		planet_crime_add = -20
	}
	
	pop_modifier = {
		pop_defense_armies_add = 2
	}
	
	weight = {
		weight = 20000

		# crisis purge
		modifier = {
			factor = 0.01
			planet.controller = {
				OR = {
					is_country_type = swarm
					is_country_type = ai_empire
				}
			}
		}
	}
}

fe_xeno_ward = {
	category = xeno_ward
	is_capped_by_modifier = no
	clothes_texture_index = 2
		
	possible_pre_triggers = {
		has_owner = yes
	}

	possible = {
		owner = { 	
			is_fallen_empire = yes
			is_xenophile = yes
		}
		NOT = { is_same_species = owner }
		is_robot_pop = no
		planet = {
			has_building = building_fe_xeno_zoo
		}
	}
	
	resources = {
		category = planet_jobs
		produces = {
			unity = 2
		}
	}
	
	weight = {
		weight = 10000

		# crisis purge
		modifier = {
			factor = 0.01
			planet.controller = {
				OR = {
					is_country_type = swarm
					is_country_type = ai_empire
				}
			}
		}
	}
}

# Backup jobs
fe_hedonist = {
	category = precursor
	is_capped_by_modifier = no
	building_icon = building_hyper_entertainment_forum
	clothes_texture_index = 2
		
	possible_pre_triggers = {
		has_owner = yes
	}

	possible = {
		owner = { 	
			is_fallen_empire = yes
			is_fallen_empire_spiritualist = no 
			is_fallen_machine_empire = no
		}
		is_same_species = owner
		NOR = {
			has_trait = trait_mechanical
			has_trait = trait_machine_unit
		}
	}
	
	resources = {
		category = planet_jobs
		produces = {
			unity = 2
		}
	}
	
	weight = {
		weight = 1000

		# crisis purge
		modifier = {
			factor = 0.01
			planet.controller = {
				OR = {
					is_country_type = swarm
					is_country_type = ai_empire
				}
			}
		}
	}
}

fe_acolyte_artisan = {
	category = precursor
	is_capped_by_modifier = no
	building_icon = building_empyrean_shrine
	clothes_texture_index = 3
	icon = artisan
		
	possible_pre_triggers = {
		has_owner = yes
	}

	possible = {
		owner = { is_fallen_empire_spiritualist = yes }
		is_same_species = owner	
	}
	
	planet_modifier = {
		planet_amenities_add = 3
	}
	
	resources = {
		category = planet_jobs
		produces = {
			consumer_goods = 3
		}
	}
	
	weight = {
		weight = 1000

		# crisis purge
		modifier = {
			factor = 0.01
			planet.controller = {
				OR = {
					is_country_type = swarm
					is_country_type = ai_empire
				}
			}
		}
	}
}

fe_maintenance_bot = {
	category = precursor
	is_capped_by_modifier = no
	building_icon = building_maintenance_depot
	clothes_texture_index = 3
	icon = maintenance_drone
		
	possible_pre_triggers = {
		has_owner = yes
	}

	possible = {
		owner = { is_fallen_machine_empire = yes }
		OR = {
			has_trait = trait_mechanical
			has_trait = trait_machine_unit
		}
	}
	
	planet_modifier = {
		planet_amenities_add = 5
	}
	
	resources = {
		category = planet_jobs
	}
	
	weight = {
		weight = 1000

		# crisis purge
		modifier = {
			factor = 0.01
			planet.controller = {
				OR = {
					is_country_type = swarm
					is_country_type = ai_empire
				}
			}
		}
	}
}