﻿### Fungoid 4
### Created by Miranda van den Brink

FUN4 = {

	language = "l_simp_chinese"
	
	ship_names = {

		generic = {
			奥格-多格 恩普 恩普-顿普 奥格-达什 奥格-多格-达什 奥格-布拉格 奥格-格鲁普托 奥格-尤鲁达什 奥格-格罗 奥格-格勒什 奥格-格鲁塔 奥格-格拉格 奥格-格鲁哈 奥格-格鲁格 奥格-桑普 奥格-多克 奥格-格伦 奥格-奥格 奥格-斯洛普 格雷格-布拉什 格雷格-普鲁什 格雷格-洛什 格雷格-鲁格 格雷格-鲁克 格雷格-布罗克 格雷格-什穆普 格雷格-乌拉什 格雷格-鲁格穆什 格雷格-鲁格索 格雷格-格洛普 格雷格-达什 格雷格-多格 格雷格-格罗 格雷格-尤鲁达什 赫格-布洛普 赫格-多格 赫格-阿托 赫格-格洛普 赫格-达什 赫格-奥格 赫格-布拉布 格拉布多克 戈布拉普 格拉布德克 格拉布多 格拉布阿托 奥格阿托 格格阿托 格雷格因阿托 格拉博阿托 罗格阿托 布拉普阿托 格博阿托 格普斯阿托 鲁默阿托 克雷金阿托 什莱金阿托 奥格罗格阿托 布罗普阿托 阿格拉托 格鲁克阿托 格鲁克多林阿托 布罗平阿托 奥格达什多什 奥格罗格阿托 什拉巴多什 格拉巴多什 普罗什-格罗金阿托
		}

		corvette = {
		}
		
		destroyer = {
		}
		
		cruiser = {
		}
		
		battleship = {
		}

		titan = {
		}

		colossus = {
		}
		
		science = {
		}
		
		colonizer = {
		}
		
		constructor = {
		}
		
		transport = {
		}
	
		military_station_small = {
		}

		ion_cannon = {
		}
	}

	fleet_names = {
		random_names = {
			"夫伦星际舰队" "布拉普星际舰队" "奥格罗格星际舰队" "盖格波瑞亚星际舰队" "穆达尔星际舰队" "格罗贝利斯星际舰队" "格罗林杜斯星际舰队" "赫提斯星际舰队" "达布利多克星际舰队" "鲁米利乌斯星际舰队" "罗格星际舰队" "汤普斯星际舰队" "格尔普斯星际舰队" "什莫提斯星际舰队" "庞普鲁斯星际舰队"
		}
		sequential_name = "%O%  星际舰队"
	}
	
	army_names = {
	
		defense_army = {
			sequential_name = "%O% 防御部队"
		}
			
		assault_army = {
			sequential_name = "%O% 攻击部队"
		}
		
		slave_army = {
			sequential_name = "%O% 奴兵师"
		}
		
		clone_army = {
			sequential_name = "%O% 克隆师"
		}
		
		robotic_army = {
			sequential_name = "%O% 机器人攻击部队"
		}

		robotic_defense_army = {
			sequential_name = "%O% 机器人防御部队"
		}
		
		psionic_army = {
			sequential_name = "%R% 灵能部队"
		}
		
		xenomorph_army = {
			sequential_name = "%O% 异型部队"
		}
		
		gene_warrior_army = {
			sequential_name = "%O% 生物兵器部队"
		}

		occupation_army = {
			sequential_name = "%O% 占领部队"
		}

		robotic_occupation_army = {
			sequential_name = "%O% 机械化占领者"
		}

		primitive_army = {
			sequential_name = "原始军队 %C%"
		}
		industrial_army = {
			sequential_name = "工业军队 %C%"
		}
		postatomic_army = {
			sequential_name = "后原子军 %C%"
		}
	}

	planet_names = {

		generic = {
			names = {
				夫伦 布拉普 什拉波 奥格罗格 盖格波瑞亚 "布利格·奥格罗格" 穆达尔 格鲁布洛 格拉普 夫罗普 什莫瑞亚 格雷格波 布雷普 夫罗普 格拉格博 什勒明 格罗恩迪亚 什勒马斯 什鲁格利亚 修格米亚 格雷格姆斯 什莫格 格鲁普 乌吉伯瑞亚 布罗普 修格 格加莫亚 什米格 加古什 格拉鲁夫 奥什拉 布雷格 奥格博 乌古达什 布罗克斯 什波普 布拉咖多什 格罗格 奥格伦迪亚 夫伦斯 克雷格 格罗斯克 什勒莫 瑞古吉亚 修罗格 布格 克雷格博 斯麦格 布洛帕 安格达 布雷格布拉 克雷格莫 安古斯 格鲁洛什 格鲁克多 奥格达什
			}
		}
		
		pc_desert = {
			names = {
			}
		}
		
		pc_tropical = {
			names = {
			}
		}
		
		pc_arid = {
			names = {
			}
		}
		
		pc_continental = {
			names = {
			}
		}
		
		pc_ocean = {
			names = {
			}
		}
		
		pc_tundra = {
			names = {
			}
		}
		
		pc_arctic = {
			names = {
			}
		}

		pc_savannah = {
			names = {
			}
		}

		pc_alpine = {
			names = {
			}
		}
	}

	character_names = {
		default = {
			# A complete name
			full_names = {
				克雷格 格罗特 格鲁普斯 莫乔特 格吉斯 什鲁格 博乔特 什莫格 克洛特 欧乔特 沃特 格博 格博勒 庞博 格拉博 恩普 格鲁格 奥格鲁格 格罗普 格拉博-格罗博 什梅尔 格鲁 斯洛普 奥普 格鲁普 加博洛特 多克 巴格 多克洛 洛特 什莫特 达博尔 乌克 波特 迪波-达波 什波普 道博格 杜克-什努克 博洛普 鲁博 布伦普 伊格 伦普尔 格鲁金 格鲁多 格洛普 格鲁米 格鲁克 伦姆 咖博雷 洛格 克拉格 格拉姆 格罗坡 隆普 什普雷格 乌格 奥普 格罗普 罗格 夫伦 布拉普 奥格罗格 穆达尔 格鲁普 格拉普 布罗特
			}
			
			# Always combined with a second name
			first_names = {
			}
			
			# Always combined with a first name
			second_names = {
			}
			
			regnal_first_names = {
				格罗贝利斯 格罗林杜斯 赫提斯 达布利多克 鲁米利乌斯 罗格 汤普斯 格尔普斯 什莫提斯 庞普鲁斯
			}
			
			regnal_second_names = {
			}
		}
	}
}