﻿### Mammalian 1
### Created by Henrik Thyrwall

MAM1 = {
	ship_names = {

		generic = {
			T'Tanak T'Tuda T'Timonok T'Dimik T'Derikam D'Dana D'Vormat D'Kirmik T'Kana T'Tamik D'Tirak T'Komot D'Valam T'Ligam D'Tunak T'Kolbak D'Tuma T'Tollok Y'Tharak Y'Gora Y'Falsek Y'Kono Y'Jargam Y'Lambak Y'Noro Y'Loram Y'Valdim Y'Soram D'Dirim D'Moro D'Farak T'Timin T'Vorg T'Lirmak D'Jolsik Y'Bamta Y'Barra D'Soto T'Ralsak D'Orom D'Oh D'Irim T'Ylgar T'Torga T'Ugana Y'Lesmag Y'Sorom Y'Parga T'Harik T'Sirom Y'Glara D'Naka T'Miri T'Sirma T'Taco D'Targa D'Moro D'Irfa D'Pollog D'Virbo T'Nara T'Migor D'Anara D'Aram T'Talok Y'Ario Y'Maggro D'Varik D'Orang D'Rila T'Tyrik T'Terell T'Tynnia T'Nerok D'Allas T'Vojak T'Nir D'Damma D'Penek D'Irio D'Tarikon D'Saba D'Eviko T'Blirak T'Kanor Y'Pana Y'Viram Y'Kanas Y'Sarik Y'Panjik T'Klea Y'Vardos Y'Caram D'Buris D'Banna D'Kuru D'Marov D'Sagri T'Bomka T'Saris
		}

		corvette = {
		}
		
		destroyer = {
		}
		
		cruiser = {
		}
		
		battleship = {
		}

		titan = {
		}

		colossus = {
		}
		
		science = {
		}
		
		colonizer = {
		}
		
		constructor = {
		}
		
		transport = {
		}
	
		military_station_small = {
		}

		ion_cannon = {
		}
	}

	fleet_names = {
		random_names = {
			"Korrim Starfleet" "Rivén Starfleet" "Fortana Starfleet" "Pollimin Starfleet" "Gorodo Starfleet" "Forfan Starfleet" "Cardana Starfleet" "Horoto Starfleet" "Disini Starfleet" "Varnala Starfleet" "Cannala Starfleet" "Shimini Starfleet" "Martano Starfleet" "Fanti Starfleet" "Grungoni Starfleet"
		}
		sequential_name = "%O% Starfleet"
	}
		
	army_names = {
		defense_army = {
			sequential_name = "%O% Defensive Column"
		}
			
		assault_army = {
			sequential_name = "%O% Invader Column"
		}
		
		slave_army = {
			sequential_name = "%O% Correctional Column"
		}
		
		clone_army = { 
			sequential_name = "Molded Troops %R%"
		}
		
		robotic_army = {
			sequential_name = "Robotic Infantry %R%"
		}

		robotic_defense_army = {
			sequential_name = "Robotic Protectors %R%"
		}
		
		psionic_army = { 
			sequential_name = "Psionic Infantry %R%"
		}
		
		xenomorph_army = {
			sequential_name = "Xenomorph Hive %R%"
		}
		
		gene_warrior_army = {
			sequential_name = "%O% Modified Troopers"
		}

		occupation_army = {
			sequential_name = "%O% Occupation Column"
		}

		robotic_occupation_army = {
			sequential_name = "%O% Robotic Garrison"
		}

		primitive_army = {
			sequential_name = "Primitive Army %C%"
		}
		industrial_army = {
			sequential_name = "Industrial Army %C%"
		}
		postatomic_army = {
			sequential_name = "Post-Atomic Army %C%"
		}
	}

	planet_names = {

		generic = {
			names = {
				"Korrim" "Caldan's First" "Rivén's Burrow" "Rattia" "Fortana" "Pollimin" "Firren" "Carimal" "Mehrnana" "Finton" "Rorien's Grove" "Fortalia" "Biroi" "Varnia" "Cardilia" "Kormli" "Darpo's Communion" "Dissadia" "Ultia's Shelter" "Mani's Den" "Firtle's Web" "Pottle's Pantry" "Mortin's Marrow" "Tourivale" "Droitandir" "Lavelkor" "Collonia's Homestead" "Uthian's Shrine" "Forfion" "Carnaloa" "Ridlan's Refuge" "Hortle's Haven" "Vilcot's Pursuit" "Ultan" "Baordo" "Nagrim" "Furdest" "Noilan" "Yrdur" "Taminth" "Gordan" "Grongari" "Balitana" "Palitine" "Tillie's Topaz" "Emmrie's Emerald" "Gildern's Garnet" "Roddle's Ruby" "Shondana's Saphire" "Philon's Port" "Charion's Crystal" "Diona's Diamond"
			}
		}
		
		pc_desert = {
			names = {
			}
		}
		
		pc_tropical = {
			names = {
			}
		}
		
		pc_arid = {
			names = {
			}
		}
		
		pc_continental = {
			names = {
			}
		}
		
		pc_ocean = {
			names = {
			}
		}
		
		pc_tundra = {
			names = {
			}
		}
		
		pc_arctic = {
			names = {
			}
		}

		pc_savannah = {
			names = {
			}
		}

		pc_alpine = {
			names = {
			}
		}
		
	}

	character_names = {
		default = {
			# A complete name
			full_names = {
			}
			
			# Always combined with a second name
			first_names_male = {
				Tig Ser Vak Mor Gan Pud Cal Vir Bur Tan Mik Gor Oro Dim Ban Gar Sok Vak Tok Pok Tik Sar Vub Mak Bor 
			}
			first_names_female = {
				Tigi Seri Vaki Mori Gani Pudi Cali Viri Buri Tani Miki Gori Oroi Dimi Bani Gari Soki Vaki Toki Poki Tiki Sari Vubi Maki Bori 
			}
			
			# Always combined with a first name
			second_names = {
				J'Khanna J'Kir J'Dallot J'Ghor J'Bassim B'Donag B'Than B'Scorak B'Eren B'Torak D'Dhenn D'Kut D'Kara B'Sirim B'Korab B'Scul J'Dumak J'Dir
			}
			
			regnal_first_names = {
				J'Khanna J'Kir J'Dallot J'Ghor J'Bassim B'Donag
			}
			
			regnal_second_names = {
				Sakir
			}
		}
	}
}