﻿### Plantoid 3
### Created by Rufus Tronde and Miranda van den Brink

PLANT3 = {	
	ship_names = {
	
		generic = {
			Medriatus Soetemus Deketalus Boramavus Charadomus Ortionacus Moratinius Tenokiarius Meladionius Ornithorhynchus Paradoxus Lanlitius Vedirikarius Moretius Dekalus Chramus Vitalus Mereotepanus Brekkavus Gordanus Jamilus Evistratus Boramelus Rentifalus Mirtinius Teomoramavus Trivalus Prakus Brigavus Drimarus Tritus Ondolus Hemivalus Dekadamus Sepirius Jureus Brustus Livus Javus Petus Gladiolus Flovius Mirius Rivolus Titalus Avidius Aroneus Grolus Nemus Boralomus 
		}
	
		corvette = {
		}
		
		destroyer = {
		}
		
		cruiser = {
		}
		
		battleship = {
		}
		
		titan = {
		}
		
		colossus = {
		}
		
		science = {
		}
		
		colonizer = {
		}
		
		constructor = {
		}
		
		transport = {
		}
	
		military_station_small = {
		}
		
		ion_cannon = {
		}
	}
	
	fleet_names = {
		random_names = {
			"Blossoming Bion Armada" "Flourishing Bion Armada" "Vanquishing Bion Armada" "Whirling Bion Armada" "Burgeoning Bion Armada"
		}
		sequential_name = "%O% Bion Armada"
	}

	army_names = {
		defense_army = {
			sequential_name = "%O% Shield of Bark"
		}
			
		assault_army = {
			sequential_name = "%O% Spear of Spine"
		}
		
		slave_army = {
			sequential_name = "%O% Harvest Crops"
		}
		
		clone_army = { 
			sequential_name = "Genet %R%"
		}
		
		robotic_army = {
			sequential_name = "Daisy Chain %R%"
		}

		robotic_defense_army = {
			sequential_name = "Daffodil Chain %R%"
		}
		
		psionic_army = { 
			sequential_name = "%O% Pheromone Force"
		}
		
		xenomorph_army = {
			sequential_name = "%O% Xenodendron Force"
		}
		
		gene_warrior_army = {
			sequential_name = "%O% Extremophile Force"
		}

		occupation_army = {
			sequential_name = "%O% Bark Garrison"
		}

		robotic_occupation_army = {
			sequential_name = "%O% Daffodil Garrison"
		}

		primitive_army = {
			sequential_name = "Primitive Army %C%"
		}
		industrial_army = {
			sequential_name = "Industrial Army %C%"
		}
		postatomic_army = {
			sequential_name = "Post-Atomic Army %C%"
		}
	}
	
	planet_names = {
	
		generic = {
			names = {
				Lonvitium Koronium Nimerium Mitanium Ramonium Henumium Janarsium Fugatium Panokirium Veranium Verdureum Lomenium Ronobirium Berykinium Cobunorium Omoderium Ibinidium Madasenium Esperium Herbarium Vorberium Gytorium Bevoreum Rivorium Limorium Drofilium Dendtritium Elorium Vendorium Ceptorium Styrium Brovarium Nirium Remorium Ketovilium Ketorium Gronium Revium Henimium Narium 
			}
		}
		
		pc_desert = {
			names = {
			}
		}
		
		pc_tropical = {
			names = {
			}
		}
		
		pc_arid = {
			names = {
			}
		}
		
		pc_continental = {
			names = {
			}
		}
		
		pc_ocean = {
			names = {
			}
		}
		
		pc_tundra = {
			names = {
			}
		}
		
		pc_arctic = {
			names = {
			}
		}

		pc_savannah = {
			names = {
			}
		}

		pc_alpine = {
			names = {
			}
		}
		
	}
	
	character_names = {
		default = {
			# A complete name
			full_names = {
			}
			
			# Always combined with a second name
			first_names_female = {
				Flora Viola Violet Lily Rose Daisy Rowan Iris Jasmine Veronica Hazel Erica Olive
			}

			first_names_male = {
				Rowan Basil Heath Reed Ash Huckleberry Bud
			}
			
			# Always combined with a first name
			second_names = {
				Oak Bloom Garland Maple Hawthorn Lite
			}

			regnal_first_names_male = {
				Valerian Narcissus Amaranth
			}

			regnal_first_names_female = {
				Buttercup Jasmine Belladonna
			}
			
			regnal_second_names = {
				Linnaeus
			}
		}
	}
}